%YAML 1.1
%TAG !u! tag:unity3d.com,2011:
--- !u!114 &-8415235715616050149
MonoBehaviour:
  m_ObjectHideFlags: 11
  m_CorrespondingSourceObject: {fileID: 0}
  m_PrefabInstance: {fileID: 0}
  m_PrefabAsset: {fileID: 0}
  m_GameObject: {fileID: 0}
  m_Enabled: 1
  m_EditorHideFlags: 0
  m_Script: {fileID: 11500000, guid: 639247ca83abc874e893eb93af2b5e44, type: 3}
  m_Name: 
  m_EditorClassIdentifier: 
  version: 0
--- !u!21 &2100000
Material:
  serializedVersion: 8
  m_ObjectHideFlags: 0
  m_CorrespondingSourceObject: {fileID: 0}
  m_PrefabInstance: {fileID: 0}
  m_PrefabAsset: {fileID: 0}
  m_Name: Trail03_SGAddScroll
  m_Shader: {fileID: 4800000, guid: 82576b91c85876c4ab2045b2fa772b54, type: 3}
  m_Parent: {fileID: 0}
  m_ModifiedSerializedProperties: 0
  m_ValidKeywords: []
  m_InvalidKeywords:
  - _DISTORTMAINTEXTURE_ON
  - _EMISSION
  m_LightmapFlags: 1
  m_EnableInstancingVariants: 0
  m_DoubleSidedGI: 0
  m_CustomRenderQueue: -1
  stringTagMap: {}
  disabledShaderPasses: []
  m_LockedProperties: 
  m_SavedProperties:
    serializedVersion: 3
    m_TexEnvs:
    - Texture2D_7FCC054E:
        m_Texture: {fileID: 2800000, guid: 1d853f1f75c64464fa710478fc99e06c, type: 3}
        m_Scale: {x: 1, y: 1}
        m_Offset: {x: 0, y: 0}
    - Texture2D_B24C83B0:
        m_Texture: {fileID: 2800000, guid: 28c7aad1372ff114b90d330f8a2dd938, type: 3}
        m_Scale: {x: 1, y: 1}
        m_Offset: {x: 0, y: 0}
    - Texture2D_E43982E:
        m_Texture: {fileID: 2800000, guid: 0b7eb23714e55e644b741fe984468958, type: 3}
        m_Scale: {x: 1, y: 1}
        m_Offset: {x: 0, y: 0}
    - Texture2D_E5130C32:
        m_Texture: {fileID: 2800000, guid: a7e38f07d6d623e47912de798e1379f2, type: 3}
        m_Scale: {x: 1, y: 1}
        m_Offset: {x: 0, y: 0}
    - _BumpMap:
        m_Texture: {fileID: 0}
        m_Scale: {x: 1, y: 1}
        m_Offset: {x: 0, y: 0}
    - _ColorRamp:
        m_Texture: {fileID: 0}
        m_Scale: {x: 1, y: 1}
        m_Offset: {x: 0, y: 0}
    - _DetailAlbedoMap:
        m_Texture: {fileID: 0}
        m_Scale: {x: 1, y: 1}
        m_Offset: {x: 0, y: 0}
    - _DetailMask:
        m_Texture: {fileID: 0}
        m_Scale: {x: 1, y: 1}
        m_Offset: {x: 0, y: 0}
    - _DetailNormalMap:
        m_Texture: {fileID: 0}
        m_Scale: {x: 1, y: 1}
        m_Offset: {x: 0, y: 0}
    - _Distortion:
        m_Texture: {fileID: 2800000, guid: 82f4b06147155c54da475b309b9e24fa, type: 3}
        m_Scale: {x: 1, y: 1}
        m_Offset: {x: 0, y: 0}
    - _EmissionMap:
        m_Texture: {fileID: 0}
        m_Scale: {x: 1, y: 1}
        m_Offset: {x: 0, y: 0}
    - _Gradient:
        m_Texture: {fileID: 2800000, guid: 28c7aad1372ff114b90d330f8a2dd938, type: 3}
        m_Scale: {x: 1, y: 1}
        m_Offset: {x: 0, y: 0}
    - _MainTex:
        m_Texture: {fileID: 2800000, guid: 1d853f1f75c64464fa710478fc99e06c, type: 3}
        m_Scale: {x: -1, y: 1}
        m_Offset: {x: 0, y: 0}
    - _MainTexutre:
        m_Texture: {fileID: 2800000, guid: 1d853f1f75c64464fa710478fc99e06c, type: 3}
        m_Scale: {x: 2, y: 1}
        m_Offset: {x: 0, y: 0}
    - _Mask:
        m_Texture: {fileID: 2800000, guid: a7e38f07d6d623e47912de798e1379f2, type: 3}
        m_Scale: {x: 1, y: 1}
        m_Offset: {x: 0, y: 0}
    - _MetallicGlossMap:
        m_Texture: {fileID: 0}
        m_Scale: {x: 1, y: 1}
        m_Offset: {x: 0, y: 0}
    - _OcclusionMap:
        m_Texture: {fileID: 0}
        m_Scale: {x: 1, y: 1}
        m_Offset: {x: 0, y: 0}
    - _ParallaxMap:
        m_Texture: {fileID: 0}
        m_Scale: {x: 1, y: 1}
        m_Offset: {x: 0, y: 0}
    - unity_Lightmaps:
        m_Texture: {fileID: 0}
        m_Scale: {x: 1, y: 1}
        m_Offset: {x: 0, y: 0}
    - unity_LightmapsInd:
        m_Texture: {fileID: 0}
        m_Scale: {x: 1, y: 1}
        m_Offset: {x: 0, y: 0}
    - unity_ShadowMasks:
        m_Texture: {fileID: 0}
        m_Scale: {x: 1, y: 1}
        m_Offset: {x: 0, y: 0}
    m_Ints: []
    m_Floats:
    - Vector1_C1728026: 1.38
    - Vector1_D1034171: 0.05
    - _BUILTIN_QueueControl: -1
    - _BUILTIN_QueueOffset: 0
    - _BumpScale: 1
    - _ColorMultiplier: 5
    - _Cutoff: 0.5
    - _DetailNormalMapScale: 1
    - _DistortMainTexture: 1
    - _DistortionUSpeed: -0.3
    - _DistortionVSpeed: 0
    - _DoubleSided: 1
    - _DstBlend: 0
    - _EdgeSoftness: 0
    - _FaceSignClamp: 1
    - _GlossMapScale: 1
    - _Glossiness: 0.5
    - _GlossyReflections: 1
    - _GradientPower: 2
    - _GradientUSpeed: -0.6
    - _GradientUSpeed_copy: -0.2
    - _GradientVSpeed: 0
    - _GradientVSpeed_copy: 0
    - _InvFade: 1
    - _MainTextureUSpeed: -2
    - _MainTextureVSpeed: 0
    - _Metallic: 0
    - _Mode: 0
    - _NoiseAmount: 0.05
    - _OcclusionStrength: 1
    - _Parallax: 0.02
    - _QueueControl: 0
    - _QueueOffset: 0
    - _SmoothnessTextureChannel: 0
    - _Softness: 0
    - _SpecularHighlights: 1
    - _SrcBlend: 1
    - _UVSec: 0
    - _ZWrite: 1
    m_Colors:
    - Color_DB555ADA: {r: 4.594794, g: 4.594794, b: 4.594794, a: 1}
    - Vector2_781FB8A4: {r: 1, g: 1, b: 0, a: 0}
    - Vector2_892CE00: {r: 1, g: 1, b: 0, a: 0}
    - Vector2_8E0A3991: {r: -0.6, g: 0, b: 0, a: 0}
    - Vector2_C3A961A0: {r: -2, g: 0, b: 0, a: 0}
    - Vector2_D6AA7B7D: {r: 1, g: 1, b: 0, a: 0}
    - Vector2_E10066FE: {r: -0.3, g: 0, b: 0, a: 0}
    - _Color: {r: 1, g: 1, b: 1, a: 1}
    - _EmissionColor: {r: 0, g: 0, b: 0, a: 1}
    - _TintColor: {r: 0.625, g: 0.625, b: 0.625, a: 1}
  m_BuildTextureStacks: []
--- !u!114 &5199883360127360929
MonoBehaviour:
  m_ObjectHideFlags: 11
  m_CorrespondingSourceObject: {fileID: 0}
  m_PrefabInstance: {fileID: 0}
  m_PrefabAsset: {fileID: 0}
  m_GameObject: {fileID: 0}
  m_Enabled: 1
  m_EditorHideFlags: 0
  m_Script: {fileID: 11500000, guid: d0353a89b1f911e48b9e16bdc9f2e058, type: 3}
  m_Name: 
  m_EditorClassIdentifier: 
  version: 7
