%YAML 1.1
%TAG !u! tag:unity3d.com,2011:
--- !u!114 &11400000
MonoBehaviour:
  m_ObjectHideFlags: 0
  m_CorrespondingSourceObject: {fileID: 0}
  m_PrefabInstance: {fileID: 0}
  m_PrefabAsset: {fileID: 0}
  m_GameObject: {fileID: 0}
  m_Enabled: 1
  m_EditorHideFlags: 0
  m_Script: {fileID: 11500000, guid: 33e9664f8d116ab4698bd87e78752407, type: 3}
  m_Name: SheriffStatesUpgrade
  m_EditorClassIdentifier: 
  unitName: Sheriff
  levelProgression:
  - priceCoins: 5
    open: 1
    states:
    - stateName: MaxHp
      stateValue: 100
    - stateName: Armor
      stateValue: 0
    - stateName: Speed
      stateValue: 1
    - stateName: Damage
      stateValue: 2
    - stateName: AttackRange
      stateValue: 6
    - stateName: AttackCooldown
      stateValue: 3
    - stateName: RecoveryTime
      stateValue: 15
    - stateName: SkillTime
      stateValue: 5
    - stateName: SkillCooldown
      stateValue: 10
  - priceCoins: 30
    open: 0
    states:
    - stateName: MaxHp
      stateValue: 120
    - stateName: Armor
      stateValue: 1
    - stateName: Speed
      stateValue: 1
    - stateName: Damage
      stateValue: 3
    - stateName: AttackRange
      stateValue: 7
    - stateName: AttackCooldown
      stateValue: 2.5
    - stateName: RecoveryTime
      stateValue: 13
    - stateName: SkillTime
      stateValue: 6
    - stateName: SkillCooldown
      stateValue: 11
  - priceCoins: 40
    open: 0
    states:
    - stateName: MaxHp
      stateValue: 150
    - stateName: Armor
      stateValue: 2
    - stateName: Speed
      stateValue: 1
    - stateName: Damage
      stateValue: 3
    - stateName: AttackRange
      stateValue: 8
    - stateName: AttackCooldown
      stateValue: 2
    - stateName: RecoveryTime
      stateValue: 10
    - stateName: SkillTime
      stateValue: 7
    - stateName: SkillCooldown
      stateValue: 12
