%YAML 1.1
%TAG !u! tag:unity3d.com,2011:
--- !u!114 &11400000
MonoBehaviour:
  m_ObjectHideFlags: 0
  m_CorrespondingSourceObject: {fileID: 0}
  m_PrefabInstance: {fileID: 0}
  m_PrefabAsset: {fileID: 0}
  m_GameObject: {fileID: 0}
  m_Enabled: 1
  m_EditorHideFlags: 0
  m_Script: {fileID: 11500000, guid: 07ac4f9e0432bc24189cdd7538586129, type: 3}
  m_Name: 1_LevelRewards
  m_EditorClassIdentifier: 
  rewards:
    level: 1
    stars:
    - name: 1 Star
      minHealt: 1
      reward:
      - nameResource: Coin
        value: 0
        count: 1
        chance: 1
      - nameResource: Diamond
        value: 0
        count: 1
        chance: 0
    - name: 2 Star
      minHealt: 10
      reward:
      - nameResource: Coin
        value: 0
        count: 1
        chance: 0.9
      - nameResource: Diamond
        value: 0
        count: 1
        chance: 0.8
      - nameResource: SuperPower
        value: 0
        count: 1
        chance: 0
    - name: 3 Star
      minHealt: 20
      reward:
      - nameResource: Diamond
        value: 0
        count: 1
        chance: 0.7
      - nameResource: SuperPower
        value: 0
        count: 1
        chance: 0.6
      - nameResource: Bomb
        value: 0
        count: 1
        chance: 0.5
