%YAML 1.1
%TAG !u! tag:unity3d.com,2011:
--- !u!74 &7400000
AnimationClip:
  m_ObjectHideFlags: 0
  m_CorrespondingSourceObject: {fileID: 0}
  m_PrefabInstance: {fileID: 0}
  m_PrefabAsset: {fileID: 0}
  m_Name: Invader_slime_run
  serializedVersion: 7
  m_Legacy: 0
  m_Compressed: 0
  m_UseHighQualityCurve: 0
  m_RotationCurves:
  - curve:
      serializedVersion: 2
      m_Curve:
      - serializedVersion: 3
        time: 0
        value: {x: -0.39340413, y: 0.5875655, z: -0.39340413, w: 0.5875655}
        inSlope: {x: 0.028599499, y: 0.019115208, z: 0.028599499, w: 0.019115208}
        outSlope: {x: 0.028599499, y: 0.019115208, z: 0.028599499, w: 0.019115208}
        tangentMode: 0
        weightedMode: 0
        inWeight: {x: 0.33333334, y: 0.33333334, z: 0.33333334, w: 0.33333334}
        outWeight: {x: 0.33333334, y: 0.33333334, z: 0.33333334, w: 0.33333334}
      - serializedVersion: 3
        time: 0.40000004
        value: {x: -0.3623984, y: 0.60717994, z: -0.3623984, w: 0.60717994}
        inSlope: {x: -0.09910312, y: -0.05928932, z: -0.09910312, w: -0.05928932}
        outSlope: {x: -0.09910312, y: -0.05928932, z: -0.09910312, w: -0.05928932}
        tangentMode: 0
        weightedMode: 0
        inWeight: {x: 0.33333334, y: 0.33333334, z: 0.33333334, w: 0.33333334}
        outWeight: {x: 0.33333334, y: 0.33333334, z: 0.33333334, w: 0.33333334}
      - serializedVersion: 3
        time: 0.6666667
        value: {x: -0.39340413, y: 0.5875655, z: -0.39340413, w: 0.5875655}
        inSlope: {x: -0.028599529, y: -0.019115228, z: -0.028599529, w: -0.019115228}
        outSlope: {x: -0.028599529, y: -0.019115228, z: -0.028599529, w: -0.019115228}
        tangentMode: 0
        weightedMode: 0
        inWeight: {x: 0.33333334, y: 0.33333334, z: 0.33333334, w: 0.33333334}
        outWeight: {x: 0.33333334, y: 0.33333334, z: 0.33333334, w: 0.33333334}
      m_PreInfinity: 2
      m_PostInfinity: 2
      m_RotationOrder: 4
    path: Body
  - curve:
      serializedVersion: 2
      m_Curve:
      - serializedVersion: 3
        time: 0
        value: {x: -5.551115e-17, y: -4.3368066e-19, z: -0.2246773, w: 0.97443324}
        inSlope: {x: -4.163336e-16, y: 3.3176584e-15, z: 0.058304515, w: 0.013382434}
        outSlope: {x: -4.163336e-16, y: 3.3176584e-15, z: 0.058304515, w: 0.013382434}
        tangentMode: 0
        weightedMode: 0
        inWeight: {x: 0.33333334, y: 0.33333334, z: 0.33333334, w: 0.33333334}
        outWeight: {x: 0.33333334, y: 0.33333334, z: 0.33333334, w: 0.33333334}
      - serializedVersion: 3
        time: 0.43333337
        value: {x: -2.7755605e-17, y: -1.7346994e-18, z: -0.1512197, w: 0.9885002}
        inSlope: {x: -1.0408347e-15, y: 8.7169865e-16, z: -0.28550017, w: -0.04419029}
        outSlope: {x: -1.0408347e-15, y: 8.7169865e-16, z: -0.28550017, w: -0.04419029}
        tangentMode: 0
        weightedMode: 0
        inWeight: {x: 0.33333334, y: 0.33333334, z: 0.33333334, w: 0.33333334}
        outWeight: {x: 0.33333334, y: 0.33333334, z: 0.33333334, w: 0.33333334}
      - serializedVersion: 3
        time: 0.6666667
        value: {x: -5.551115e-17, y: -4.3368066e-19, z: -0.2246773, w: 0.97443324}
        inSlope: {x: 1.9852354e-22, y: 3.3306727e-15, z: -0.08585759, w: -0.019662399}
        outSlope: {x: 1.9852354e-22, y: 3.3306727e-15, z: -0.08585759, w: -0.019662399}
        tangentMode: 0
        weightedMode: 0
        inWeight: {x: 0.33333334, y: 0.33333334, z: 0.33333334, w: 0.33333334}
        outWeight: {x: 0.33333334, y: 0.33333334, z: 0.33333334, w: 0.33333334}
      m_PreInfinity: 2
      m_PostInfinity: 2
      m_RotationOrder: 4
    path: Body/Spine01
  - curve:
      serializedVersion: 2
      m_Curve:
      - serializedVersion: 3
        time: 0
        value: {x: -5.3776424e-17, y: 1.6653347e-16, z: -0.15302908, w: 0.9882217}
        inSlope: {x: -7.285839e-16, y: 1.6783444e-15, z: -0.067409724, w: -0.010517835}
        outSlope: {x: -7.285839e-16, y: 1.6783444e-15, z: -0.067409724, w: -0.010517835}
        tangentMode: 0
        weightedMode: 0
        inWeight: {x: 0.33333334, y: 0.33333334, z: 0.33333334, w: 0.33333334}
        outWeight: {x: 0.33333334, y: 0.33333334, z: 0.33333334, w: 0.33333334}
      - serializedVersion: 3
        time: 0.33333334
        value: {x: -6.59195e-17, y: 1.6653345e-16, z: -0.25771117, w: 0.96622205}
        inSlope: {x: -2.6020852e-17, y: 8.3266753e-16, z: -0.22887895, w: -0.0606528}
        outSlope: {x: -2.6020852e-17, y: 8.3266753e-16, z: -0.22887895, w: -0.0606528}
        tangentMode: 0
        weightedMode: 0
        inWeight: {x: 0.33333334, y: 0.33333334, z: 0.33333334, w: 0.33333334}
        outWeight: {x: 0.33333334, y: 0.33333334, z: 0.33333334, w: 0.33333334}
      - serializedVersion: 3
        time: 0.5
        value: {x: -5.5511148e-17, y: 1.6653345e-16, z: -0.23055057, w: 0.97306037}
        inSlope: {x: -1.5612472e-16, y: -8.521845e-16, z: 0.580059, w: 0.1366058}
        outSlope: {x: -1.5612472e-16, y: -8.521845e-16, z: 0.580059, w: 0.1366058}
        tangentMode: 0
        weightedMode: 0
        inWeight: {x: 0.33333334, y: 0.33333334, z: 0.33333334, w: 0.33333334}
        outWeight: {x: 0.33333334, y: 0.33333334, z: 0.33333334, w: 0.33333334}
      - serializedVersion: 3
        time: 0.6666667
        value: {x: -5.3776424e-17, y: 1.6653347e-16, z: -0.15302908, w: 0.9882217}
        inSlope: {x: 1.0408341e-16, y: 1.6783456e-15, z: 0.1471801, w: 0.023165368}
        outSlope: {x: 1.0408341e-16, y: 1.6783456e-15, z: 0.1471801, w: 0.023165368}
        tangentMode: 0
        weightedMode: 0
        inWeight: {x: 0.33333334, y: 0.33333334, z: 0.33333334, w: 0.33333334}
        outWeight: {x: 0.33333334, y: 0.33333334, z: 0.33333334, w: 0.33333334}
      m_PreInfinity: 2
      m_PostInfinity: 2
      m_RotationOrder: 4
    path: Body/Spine01/Head
  - curve:
      serializedVersion: 2
      m_Curve:
      - serializedVersion: 3
        time: 0
        value: {x: 0.25738913, y: -0.65859765, z: 0.25738913, w: 0.65859765}
        inSlope: {x: -0.058077868, y: -0.022600291, z: -0.058077868, w: 0.022600291}
        outSlope: {x: -0.058077868, y: -0.022600291, z: -0.058077868, w: 0.022600291}
        tangentMode: 0
        weightedMode: 0
        inWeight: {x: 0.33333334, y: 0.33333334, z: 0.33333334, w: 0.33333334}
        outWeight: {x: 0.33333334, y: 0.33333334, z: 0.33333334, w: 0.33333334}
      - serializedVersion: 3
        time: 0.3
        value: {x: 0.16636503, y: -0.68725735, z: 0.16636503, w: 0.68725735}
        inSlope: {x: -0.3502116, y: -0.085217364, z: -0.3502116, w: 0.085217364}
        outSlope: {x: -0.3502116, y: -0.085217364, z: -0.3502116, w: 0.085217364}
        tangentMode: 0
        weightedMode: 0
        inWeight: {x: 0.33333334, y: 0.33333334, z: 0.33333334, w: 0.33333334}
        outWeight: {x: 0.33333334, y: 0.33333334, z: 0.33333334, w: 0.33333334}
      - serializedVersion: 3
        time: 0.5
        value: {x: 0.16306484, y: -0.6880479, z: 0.16306484, w: 0.6880479}
        inSlope: {x: 0.60811794, y: 0.14706461, z: 0.60811794, w: -0.14706461}
        outSlope: {x: 0.60811794, y: 0.14706461, z: 0.60811794, w: -0.14706461}
        tangentMode: 0
        weightedMode: 0
        inWeight: {x: 0.33333334, y: 0.33333334, z: 0.33333334, w: 0.33333334}
        outWeight: {x: 0.33333334, y: 0.33333334, z: 0.33333334, w: 0.33333334}
      - serializedVersion: 3
        time: 0.6333334
        value: {x: 0.25101316, y: -0.661054, z: 0.25101316, w: 0.661054}
        inSlope: {x: 0.34388858, y: 0.12758727, z: 0.34388858, w: -0.12758727}
        outSlope: {x: 0.34388858, y: 0.12758727, z: 0.34388858, w: -0.12758727}
        tangentMode: 0
        weightedMode: 0
        inWeight: {x: 0.33333334, y: 0.33333334, z: 0.33333334, w: 0.33333334}
        outWeight: {x: 0.33333334, y: 0.33333334, z: 0.33333334, w: 0.33333334}
      - serializedVersion: 3
        time: 0.6666667
        value: {x: 0.25738913, y: -0.65859765, z: 0.25738913, w: 0.65859765}
        inSlope: {x: 0.19127923, y: 0.07369108, z: 0.19127923, w: -0.07369108}
        outSlope: {x: 0.19127923, y: 0.07369108, z: 0.19127923, w: -0.07369108}
        tangentMode: 0
        weightedMode: 0
        inWeight: {x: 0.33333334, y: 0.33333334, z: 0.33333334, w: 0.33333334}
        outWeight: {x: 0.33333334, y: 0.33333334, z: 0.33333334, w: 0.33333334}
      m_PreInfinity: 2
      m_PostInfinity: 2
      m_RotationOrder: 4
    path: Body/Spine01/Head/Crown
  - curve:
      serializedVersion: 2
      m_Curve:
      - serializedVersion: 3
        time: 0
        value: {x: 0.53339976, y: 0.8458633, z: -1.9132875e-17, w: -8.4455505e-17}
        inSlope: {x: -0.03860056, y: 0.024300812, z: -3.851502e-18, w: 8.756865e-19}
        outSlope: {x: -0.03860056, y: 0.024300812, z: -3.851502e-18, w: 8.756865e-19}
        tangentMode: 0
        weightedMode: 0
        inWeight: {x: 0.33333334, y: 0.33333334, z: 0.33333334, w: 0.33333334}
        outWeight: {x: 0.33333334, y: 0.33333334, z: 0.33333334, w: 0.33333334}
      - serializedVersion: 3
        time: 0.40000004
        value: {x: 0.4665121, y: 0.8845148, z: -2.5595283e-17, w: -8.272654e-17}
        inSlope: {x: 0.023848882, y: -0.012652885, z: 2.2350772e-18, w: -6.8560095e-19}
        outSlope: {x: 0.023848882, y: -0.012652885, z: 2.2350772e-18, w: -6.8560095e-19}
        tangentMode: 0
        weightedMode: 0
        inWeight: {x: 0.33333334, y: 0.33333334, z: 0.33333334, w: 0.33333334}
        outWeight: {x: 0.33333334, y: 0.33333334, z: 0.33333334, w: 0.33333334}
      - serializedVersion: 3
        time: 0.6666667
        value: {x: 0.53339976, y: 0.8458633, z: -1.9132875e-17, w: -8.4455505e-17}
        inSlope: {x: 0.08434483, y: -0.05299156, z: 8.409358e-18, w: -1.9197226e-18}
        outSlope: {x: 0.08434483, y: -0.05299156, z: 8.409358e-18, w: -1.9197226e-18}
        tangentMode: 0
        weightedMode: 0
        inWeight: {x: 0.33333334, y: 0.33333334, z: 0.33333334, w: 0.33333334}
        outWeight: {x: 0.33333334, y: 0.33333334, z: 0.33333334, w: 0.33333334}
      m_PreInfinity: 2
      m_PostInfinity: 2
      m_RotationOrder: 4
    path: Body/Spine01/Head/EyeCTRL
  - curve:
      serializedVersion: 2
      m_Curve:
      - serializedVersion: 3
        time: 0
        value: {x: 0.6091679, y: 0.35904664, z: -0.6091679, w: 0.35904664}
        inSlope: {x: -0.010830759, y: 0.018356143, z: 0.010830759, w: 0.018356143}
        outSlope: {x: -0.010830759, y: 0.018356143, z: 0.010830759, w: 0.018356143}
        tangentMode: 0
        weightedMode: 0
        inWeight: {x: 0.33333334, y: 0.33333334, z: 0.33333334, w: 0.33333334}
        outWeight: {x: 0.33333334, y: 0.33333334, z: 0.33333334, w: 0.33333334}
      - serializedVersion: 3
        time: 0.5
        value: {x: 0.5962997, y: 0.38003513, z: -0.5962997, w: 0.38003513}
        inSlope: {x: 0.099404454, y: -0.15618011, z: -0.099404454, w: -0.15618011}
        outSlope: {x: 0.099404454, y: -0.15618011, z: -0.099404454, w: -0.15618011}
        tangentMode: 0
        weightedMode: 0
        inWeight: {x: 0.33333334, y: 0.33333334, z: 0.33333334, w: 0.33333334}
        outWeight: {x: 0.33333334, y: 0.33333334, z: 0.33333334, w: 0.33333334}
      - serializedVersion: 3
        time: 0.6666667
        value: {x: 0.6091679, y: 0.35904664, z: -0.6091679, w: 0.35904664}
        inSlope: {x: 0.023676775, y: -0.040071346, z: -0.023676775, w: -0.040071346}
        outSlope: {x: 0.023676775, y: -0.040071346, z: -0.023676775, w: -0.040071346}
        tangentMode: 0
        weightedMode: 0
        inWeight: {x: 0.33333334, y: 0.33333334, z: 0.33333334, w: 0.33333334}
        outWeight: {x: 0.33333334, y: 0.33333334, z: 0.33333334, w: 0.33333334}
      m_PreInfinity: 2
      m_PostInfinity: 2
      m_RotationOrder: 4
    path: Body/Spine01/Head/EyeCTRL/UpperEyeCover
  - curve:
      serializedVersion: 2
      m_Curve:
      - serializedVersion: 3
        time: 0
        value: {x: 0.44996268, y: 0.5454664, z: -0.44996268, w: 0.5454664}
        inSlope: {x: 0.021670459, y: -0.017901061, z: -0.021670459, w: -0.017901061}
        outSlope: {x: 0.021670459, y: -0.017901061, z: -0.021670459, w: -0.017901061}
        tangentMode: 0
        weightedMode: 0
        inWeight: {x: 0.33333334, y: 0.33333334, z: 0.33333334, w: 0.33333334}
        outWeight: {x: 0.33333334, y: 0.33333334, z: 0.33333334, w: 0.33333334}
      - serializedVersion: 3
        time: 0.36666667
        value: {x: 0.48814422, y: 0.5115811, z: -0.48814422, w: 0.5115811}
        inSlope: {x: 0.045059763, y: -0.042877786, z: -0.045059763, w: -0.042877786}
        outSlope: {x: 0.045059763, y: -0.042877786, z: -0.045059763, w: -0.042877786}
        tangentMode: 0
        weightedMode: 0
        inWeight: {x: 0.33333334, y: 0.33333334, z: 0.33333334, w: 0.33333334}
        outWeight: {x: 0.33333334, y: 0.33333334, z: 0.33333334, w: 0.33333334}
      - serializedVersion: 3
        time: 0.6666667
        value: {x: 0.44996268, y: 0.5454664, z: -0.44996268, w: 0.5454664}
        inSlope: {x: -0.04741256, y: 0.03922824, z: 0.04741256, w: 0.03922824}
        outSlope: {x: -0.04741256, y: 0.03922824, z: 0.04741256, w: 0.03922824}
        tangentMode: 0
        weightedMode: 0
        inWeight: {x: 0.33333334, y: 0.33333334, z: 0.33333334, w: 0.33333334}
        outWeight: {x: 0.33333334, y: 0.33333334, z: 0.33333334, w: 0.33333334}
      m_PreInfinity: 2
      m_PostInfinity: 2
      m_RotationOrder: 4
    path: Body/Spine01/Head/EyeCTRL/EyeBall
  - curve:
      serializedVersion: 2
      m_Curve:
      - serializedVersion: 3
        time: 0
        value: {x: 0.44996268, y: 0.5454664, z: -0.44996268, w: 0.5454664}
        inSlope: {x: -0.012258588, y: 0.010102986, z: 0.012258588, w: 0.010102986}
        outSlope: {x: -0.012258588, y: 0.010102986, z: 0.012258588, w: 0.010102986}
        tangentMode: 0
        weightedMode: 0
        inWeight: {x: 0.33333334, y: 0.33333334, z: 0.33333334, w: 0.33333334}
        outWeight: {x: 0.33333334, y: 0.33333334, z: 0.33333334, w: 0.33333334}
      - serializedVersion: 3
        time: 0.26666668
        value: {x: 0.41602895, y: 0.5717691, z: -0.41602895, w: 0.5717691}
        inSlope: {x: -0.22380756, y: 0.16296388, z: 0.22380756, w: 0.16296388}
        outSlope: {x: -0.22380756, y: 0.16296388, z: 0.22380756, w: 0.16296388}
        tangentMode: 0
        weightedMode: 0
        inWeight: {x: 0.33333334, y: 0.33333334, z: 0.33333334, w: 0.33333334}
        outWeight: {x: 0.33333334, y: 0.33333334, z: 0.33333334, w: 0.33333334}
      - serializedVersion: 3
        time: 0.4666667
        value: {x: 0.40872842, y: 0.5770105, z: -0.40872842, w: 0.5770105}
        inSlope: {x: 0.29590014, y: -0.21061611, z: -0.29590014, w: -0.21061611}
        outSlope: {x: 0.29590014, y: -0.21061611, z: -0.29590014, w: -0.21061611}
        tangentMode: 0
        weightedMode: 0
        inWeight: {x: 0.33333334, y: 0.33333334, z: 0.33333334, w: 0.33333334}
        outWeight: {x: 0.33333334, y: 0.33333334, z: 0.33333334, w: 0.33333334}
      - serializedVersion: 3
        time: 0.6333334
        value: {x: 0.44903123, y: 0.5462334, z: -0.44903123, w: 0.5462334}
        inSlope: {x: 0.060944676, y: -0.04989443, z: -0.060944676, w: -0.04989443}
        outSlope: {x: 0.060944676, y: -0.04989443, z: -0.060944676, w: -0.04989443}
        tangentMode: 0
        weightedMode: 0
        inWeight: {x: 0.33333334, y: 0.33333334, z: 0.33333334, w: 0.33333334}
        outWeight: {x: 0.33333334, y: 0.33333334, z: 0.33333334, w: 0.33333334}
      - serializedVersion: 3
        time: 0.6666667
        value: {x: 0.44996268, y: 0.5454664, z: -0.44996268, w: 0.5454664}
        inSlope: {x: 0.02794328, y: -0.0230098, z: -0.02794328, w: -0.0230098}
        outSlope: {x: 0.02794328, y: -0.0230098, z: -0.02794328, w: -0.0230098}
        tangentMode: 0
        weightedMode: 0
        inWeight: {x: 0.33333334, y: 0.33333334, z: 0.33333334, w: 0.33333334}
        outWeight: {x: 0.33333334, y: 0.33333334, z: 0.33333334, w: 0.33333334}
      m_PreInfinity: 2
      m_PostInfinity: 2
      m_RotationOrder: 4
    path: Body/Spine01/Head/EyeCTRL/BottomEyeCover
  - curve:
      serializedVersion: 2
      m_Curve:
      - serializedVersion: 3
        time: 0
        value: {x: 0.0220648, y: -0.70676243, z: 0.0220648, w: 0.70676243}
        inSlope: {x: 0, y: 0, z: 0, w: 0}
        outSlope: {x: 0, y: 0, z: 0, w: 0}
        tangentMode: 0
        weightedMode: 0
        inWeight: {x: 0.33333334, y: 0.33333334, z: 0.33333334, w: 0.33333334}
        outWeight: {x: 0.33333334, y: 0.33333334, z: 0.33333334, w: 0.33333334}
      - serializedVersion: 3
        time: 0.6666667
        value: {x: 0.0220648, y: -0.70676243, z: 0.0220648, w: 0.70676243}
        inSlope: {x: 0, y: 0, z: 0, w: 0}
        outSlope: {x: 0, y: 0, z: 0, w: 0}
        tangentMode: 0
        weightedMode: 0
        inWeight: {x: 0.33333334, y: 0.33333334, z: 0.33333334, w: 0.33333334}
        outWeight: {x: 0.33333334, y: 0.33333334, z: 0.33333334, w: 0.33333334}
      m_PreInfinity: 2
      m_PostInfinity: 2
      m_RotationOrder: 4
    path: Body/Spine01/Side_L
  - curve:
      serializedVersion: 2
      m_Curve:
      - serializedVersion: 3
        time: 0
        value: {x: 0.0220648, y: -0.70676243, z: 0.0220648, w: 0.70676243}
        inSlope: {x: 0, y: 0, z: 0, w: 0}
        outSlope: {x: 0, y: 0, z: 0, w: 0}
        tangentMode: 0
        weightedMode: 0
        inWeight: {x: 0.33333334, y: 0.33333334, z: 0.33333334, w: 0.33333334}
        outWeight: {x: 0.33333334, y: 0.33333334, z: 0.33333334, w: 0.33333334}
      - serializedVersion: 3
        time: 0.6666667
        value: {x: 0.0220648, y: -0.70676243, z: 0.0220648, w: 0.70676243}
        inSlope: {x: 0, y: 0, z: 0, w: 0}
        outSlope: {x: 0, y: 0, z: 0, w: 0}
        tangentMode: 0
        weightedMode: 0
        inWeight: {x: 0.33333334, y: 0.33333334, z: 0.33333334, w: 0.33333334}
        outWeight: {x: 0.33333334, y: 0.33333334, z: 0.33333334, w: 0.33333334}
      m_PreInfinity: 2
      m_PostInfinity: 2
      m_RotationOrder: 4
    path: Body/Spine01/Side_R
  m_CompressedRotationCurves: []
  m_EulerCurves: []
  m_PositionCurves:
  - curve:
      serializedVersion: 2
      m_Curve:
      - serializedVersion: 3
        time: 0
        value: {x: 1.5037661e-32, y: 0.0631712, z: -0.008183928}
        inSlope: {x: 0, y: 2.869405, z: -1.1895246e-16}
        outSlope: {x: 0, y: 2.869405, z: -1.1895246e-16}
        tangentMode: 0
        weightedMode: 0
        inWeight: {x: 0.33333334, y: 0.33333334, z: 0.33333334}
        outWeight: {x: 0.33333334, y: 0.33333334, z: 0.33333334}
      - serializedVersion: 3
        time: 0.033333335
        value: {x: 1.5037661e-32, y: 0.15881804, z: -0.008183928}
        inSlope: {x: 0, y: 2.718918, z: -2.7755573e-16}
        outSlope: {x: 0, y: 2.7189133, z: -1.1895246e-16}
        tangentMode: 0
        weightedMode: 0
        inWeight: {x: 0.33333334, y: 0.33333334, z: 0.33333334}
        outWeight: {x: 0.33333334, y: 0.33333334, z: 0.33333334}
      - serializedVersion: 3
        time: 0.36666667
        value: {x: 1.5037661e-32, y: 0.5607519, z: -0.008183928}
        inSlope: {x: 0, y: -0.3759082, z: -2.7755576e-16}
        outSlope: {x: 0, y: -0.37589973, z: -1.1895248e-16}
        tangentMode: 0
        weightedMode: 0
        inWeight: {x: 0.33333334, y: 0.33333334, z: 0.33333334}
        outWeight: {x: 0.33333334, y: 0.33333334, z: 0.33333334}
      - serializedVersion: 3
        time: 0.6333333
        value: {x: 1.5037661e-32, y: 0.14652643, z: -0.008183928}
        inSlope: {x: 0, y: -2.4275656, z: -2.7755602e-16}
        outSlope: {x: 0, y: -2.4275353, z: -1.1895237e-16}
        tangentMode: 0
        weightedMode: 0
        inWeight: {x: 0.33333334, y: 0.33333334, z: 0.33333334}
        outWeight: {x: 0.33333334, y: 0.33333334, z: 0.33333334}
      - serializedVersion: 3
        time: 0.6666667
        value: {x: 1.5037661e-32, y: 0.0631712, z: -0.008183928}
        inSlope: {x: 0, y: -2.5006301, z: -2.7755552e-16}
        outSlope: {x: 0, y: -2.5006301, z: -2.7755552e-16}
        tangentMode: 0
        weightedMode: 0
        inWeight: {x: 0.33333334, y: 0.33333334, z: 0.33333334}
        outWeight: {x: 0.33333334, y: 0.33333334, z: 0.33333334}
      m_PreInfinity: 2
      m_PostInfinity: 2
      m_RotationOrder: 4
    path: Body
  - curve:
      serializedVersion: 2
      m_Curve:
      - serializedVersion: 3
        time: 0
        value: {x: -0.19736421, y: 0.0070714573, z: 6.5648044e-17}
        inSlope: {x: -0.1537859, y: 0.036820937, z: 0.029147271}
        outSlope: {x: -0.1537859, y: 0.036820937, z: 0.029147271}
        tangentMode: 0
        weightedMode: 0
        inWeight: {x: 0.33333334, y: 0.33333334, z: 0.33333334}
        outWeight: {x: 0.33333334, y: 0.33333334, z: 0.33333334}
      - serializedVersion: 3
        time: 0.033333335
        value: {x: -0.20249036, y: 0.008298824, z: 0.0009715758}
        inSlope: {x: -0.15959513, y: 0.01610109, z: 0.05453361}
        outSlope: {x: -0.1595921, y: 0.016101217, z: 0.054533575}
        tangentMode: 0
        weightedMode: 0
        inWeight: {x: 0.33333334, y: 0.33333334, z: 0.33333334}
        outWeight: {x: 0.33333334, y: 0.33333334, z: 0.33333334}
      - serializedVersion: 3
        time: 0.06666667
        value: {x: -0.20800388, y: 0.008144872, z: 0.003635574}
        inSlope: {x: -0.16844492, y: -0.021342076, z: 0.099664785}
        outSlope: {x: -0.16844453, y: -0.021341974, z: 0.09966482}
        tangentMode: 0
        weightedMode: 0
        inWeight: {x: 0.33333334, y: 0.33333334, z: 0.33333334}
        outWeight: {x: 0.33333334, y: 0.33333334, z: 0.33333334}
      - serializedVersion: 3
        time: 0.16666667
        value: {x: -0.22502364, y: 0.002059286, z: 0.018021164}
        inSlope: {x: -0.16180155, y: -0.08571693, z: 0.16736194}
        outSlope: {x: -0.16180208, y: -0.08571693, z: 0.16736236}
        tangentMode: 0
        weightedMode: 0
        inWeight: {x: 0.33333334, y: 0.33333334, z: 0.33333334}
        outWeight: {x: 0.33333334, y: 0.33333334, z: 0.33333334}
      - serializedVersion: 3
        time: 0.2
        value: {x: -0.23024173, y: -0.0009557616, z: 0.023693912}
        inSlope: {x: -0.14851876, y: -0.09119011, z: 0.16736236}
        outSlope: {x: -0.14851296, y: -0.091190115, z: 0.16736223}
        tangentMode: 0
        weightedMode: 0
        inWeight: {x: 0.33333334, y: 0.33333334, z: 0.33333334}
        outWeight: {x: 0.33333334, y: 0.33333334, z: 0.33333334}
      - serializedVersion: 3
        time: 0.3
        value: {x: -0.2419477, y: -0.009230618, z: 0.0380795}
        inSlope: {x: -0.075454265, y: -0.059653968, z: 0.099663876}
        outSlope: {x: -0.07545362, y: -0.05965407, z: 0.09966486}
        tangentMode: 0
        weightedMode: 0
        inWeight: {x: 0.33333334, y: 0.33333334, z: 0.33333334}
        outWeight: {x: 0.33333334, y: 0.33333334, z: 0.33333334}
      - serializedVersion: 3
        time: 0.36666667
        value: {x: -0.24461664, y: -0.011441108, z: 0.041715074}
        inSlope: {x: 0.0065865135, y: 0.0035563288, z: -0.0068856417}
        outSlope: {x: 0.0065785507, y: 0.0035560085, z: -0.0068842564}
        tangentMode: 0
        weightedMode: 0
        inWeight: {x: 0.33333334, y: 0.33333334, z: 0.33333334}
        outWeight: {x: 0.33333334, y: 0.33333334, z: 0.33333334}
      - serializedVersion: 3
        time: 0.43333334
        value: {x: -0.24034595, y: -0.008407479, z: 0.03645062}
        inSlope: {x: 0.11773962, y: 0.07965469, z: -0.14076662}
        outSlope: {x: 0.11773863, y: 0.07965462, z: -0.14076683}
        tangentMode: 0
        weightedMode: 0
        inWeight: {x: 0.33333334, y: 0.33333334, z: 0.33333334}
        outWeight: {x: 0.33333334, y: 0.33333334, z: 0.33333334}
      - serializedVersion: 3
        time: 0.5
        value: {x: -0.22974788, y: -0.001728795, z: 0.02431949}
        inSlope: {x: 0.18774499, y: 0.107080504, z: -0.20256633}
        outSlope: {x: 0.18774007, y: 0.10707997, z: -0.20256512}
        tangentMode: 0
        weightedMode: 0
        inWeight: {x: 0.33333334, y: 0.33333334, z: 0.33333334}
        outWeight: {x: 0.33333334, y: 0.33333334, z: 0.33333334}
      - serializedVersion: 3
        time: 0.53333336
        value: {x: -0.22311388, y: 0.0018420374, z: 0.017395584}
        inSlope: {x: 0.20406152, y: 0.10035528, z: -0.20256478}
        outSlope: {x: 0.20407036, y: 0.10035691, z: -0.202568}
        tangentMode: 0
        weightedMode: 0
        inWeight: {x: 0.33333334, y: 0.33333334, z: 0.33333334}
        outWeight: {x: 0.33333334, y: 0.33333334, z: 0.33333334}
      - serializedVersion: 3
        time: 0.6
        value: {x: -0.20925154, y: 0.007175853, z: 0.005264453}
        inSlope: {x: 0.19934899, y: 0.046032555, z: -0.14076534}
        outSlope: {x: 0.19934928, y: 0.046033278, z: -0.14076748}
        tangentMode: 0
        weightedMode: 0
        inWeight: {x: 0.33333334, y: 0.33333334, z: 0.33333334}
        outWeight: {x: 0.33333334, y: 0.33333334, z: 0.33333334}
      - serializedVersion: 3
        time: 0.6333333
        value: {x: -0.20285343, y: 0.008030513, z: 0.0014305604}
        inSlope: {x: 0.17831121, y: -0.0015658425, z: -0.07896706}
        outSlope: {x: 0.17830838, y: -0.001565582, z: -0.078966394}
        tangentMode: 0
        weightedMode: 0
        inWeight: {x: 0.33333334, y: 0.33333334, z: 0.33333334}
        outWeight: {x: 0.33333334, y: 0.33333334, z: 0.33333334}
      - serializedVersion: 3
        time: 0.6666667
        value: {x: -0.19736421, y: 0.0070714573, z: 6.5648044e-17}
        inSlope: {x: 0.16467632, y: -0.028771332, z: -0.042916454}
        outSlope: {x: 0.16467632, y: -0.028771332, z: -0.042916454}
        tangentMode: 0
        weightedMode: 0
        inWeight: {x: 0.33333334, y: 0.33333334, z: 0.33333334}
        outWeight: {x: 0.33333334, y: 0.33333334, z: 0.33333334}
      m_PreInfinity: 2
      m_PostInfinity: 2
      m_RotationOrder: 4
    path: Body/Spine01
  - curve:
      serializedVersion: 2
      m_Curve:
      - serializedVersion: 3
        time: 0
        value: {x: -0.24985054, y: 0.012625657, z: 1.1879297e-16}
        inSlope: {x: -0.17363912, y: -0.030958015, z: -0.027701413}
        outSlope: {x: -0.17363912, y: -0.030958015, z: -0.027701413}
        tangentMode: 0
        weightedMode: 0
        inWeight: {x: 0.33333334, y: 0.33333334, z: 0.33333334}
        outWeight: {x: 0.33333334, y: 0.33333334, z: 0.33333334}
      - serializedVersion: 3
        time: 0.033333335
        value: {x: -0.25563857, y: 0.011593723, z: -0.0009233806}
        inSlope: {x: -0.18306415, y: -0.04928712, z: -0.05214384}
        outSlope: {x: -0.18306331, y: -0.049286943, z: -0.052143835}
        tangentMode: 0
        weightedMode: 0
        inWeight: {x: 0.33333334, y: 0.33333334, z: 0.33333334}
        outWeight: {x: 0.33333334, y: 0.33333334, z: 0.33333334}
      - serializedVersion: 3
        time: 0.06666667
        value: {x: -0.2620549, y: 0.0093398485, z: -0.0034762563}
        inSlope: {x: -0.19867632, y: -0.08219501, z: -0.09614018}
        outSlope: {x: -0.19867626, y: -0.082195155, z: -0.09614015}
        tangentMode: 0
        weightedMode: 0
        inWeight: {x: 0.33333334, y: 0.33333334, z: 0.33333334}
        outWeight: {x: 0.33333334, y: 0.33333334, z: 0.33333334}
      - serializedVersion: 3
        time: 0.13333334
        value: {x: -0.2759096, y: 0.0021663383, z: -0.012166898}
        inSlope: {x: -0.21048962, y: -0.1255096, z: -0.1548019}
        outSlope: {x: -0.21049018, y: -0.12551004, z: -0.15480249}
        tangentMode: 0
        weightedMode: 0
        inWeight: {x: 0.33333334, y: 0.33333334, z: 0.33333334}
        outWeight: {x: 0.33333334, y: 0.33333334, z: 0.33333334}
      - serializedVersion: 3
        time: 0.16666667
        value: {x: -0.2829166, y: -0.0022532667, z: -0.017652864}
        inSlope: {x: -0.20669183, y: -0.1359167, z: -0.16946779}
        outSlope: {x: -0.20669119, y: -0.13591664, z: -0.16946806}
        tangentMode: 0
        weightedMode: 0
        inWeight: {x: 0.33333334, y: 0.33333334, z: 0.33333334}
        outWeight: {x: 0.33333334, y: 0.33333334, z: 0.33333334}
      - serializedVersion: 3
        time: 0.36666667
        value: {x: -0.31248552, y: -0.024679841, z: -0.046006076}
        inSlope: {x: -0.04801368, y: -0.04084631, z: -0.052143272}
        outSlope: {x: -0.048016436, y: -0.040846515, z: -0.05214358}
        tangentMode: 0
        weightedMode: 0
        inWeight: {x: 0.33333334, y: 0.33333334, z: 0.33333334}
        outWeight: {x: 0.33333334, y: 0.33333334, z: 0.33333334}
      - serializedVersion: 3
        time: 0.43333334
        value: {x: -0.3112715, y: -0.02381059, z: -0.044912957}
        inSlope: {x: 0.11394189, y: 0.08695219, z: 0.10999005}
        outSlope: {x: 0.11393834, y: 0.086951114, z: 0.109989986}
        tangentMode: 0
        weightedMode: 0
        inWeight: {x: 0.33333334, y: 0.33333334, z: 0.33333334}
        outWeight: {x: 0.33333334, y: 0.33333334, z: 0.33333334}
      - serializedVersion: 3
        time: 0.53333336
        value: {x: -0.28777632, y: -0.006775199, z: -0.023464724}
        inSlope: {x: 0.3060591, y: 0.20672801, z: 0.25847566}
        outSlope: {x: 0.3060612, y: 0.20673127, z: 0.2584799}
        tangentMode: 0
        weightedMode: 0
        inWeight: {x: 0.33333334, y: 0.33333334, z: 0.33333334}
        outWeight: {x: 0.33333334, y: 0.33333334, z: 0.33333334}
      - serializedVersion: 3
        time: 0.56666666
        value: {x: -0.27718738, y: 0.0001399905, z: -0.014848779}
        inSlope: {x: 0.3156688, y: 0.19535659, z: 0.24198063}
        outSlope: {x: 0.31566107, y: 0.19535469, z: 0.24197835}
        tangentMode: 0
        weightedMode: 0
        inWeight: {x: 0.33333334, y: 0.33333334, z: 0.33333334}
        outWeight: {x: 0.33333334, y: 0.33333334, z: 0.33333334}
      - serializedVersion: 3
        time: 0.6
        value: {x: -0.2667319, y: 0.006248543, z: -0.0073327264}
        inSlope: {x: 0.2980481, y: 0.15832983, z: 0.1924821}
        outSlope: {x: 0.29805264, y: 0.15833218, z: 0.19248493}
        tangentMode: 0
        weightedMode: 0
        inWeight: {x: 0.33333334, y: 0.33333334, z: 0.33333334}
        outWeight: {x: 0.33333334, y: 0.33333334, z: 0.33333334}
      - serializedVersion: 3
        time: 0.6333333
        value: {x: -0.2573172, y: 0.0106954295, z: -0.0020165031}
        inSlope: {x: 0.25322172, y: 0.0956569, z: 0.10999126}
        outSlope: {x: 0.2532167, y: 0.09565605, z: 0.109990336}
        tangentMode: 0
        weightedMode: 0
        inWeight: {x: 0.33333334, y: 0.33333334, z: 0.33333334}
        outWeight: {x: 0.33333334, y: 0.33333334, z: 0.33333334}
      - serializedVersion: 3
        time: 0.6666667
        value: {x: -0.24985054, y: 0.012625657, z: 1.1879297e-16}
        inSlope: {x: 0.22399344, y: 0.05790625, z: 0.060494583}
        outSlope: {x: 0.22399344, y: 0.05790625, z: 0.060494583}
        tangentMode: 0
        weightedMode: 0
        inWeight: {x: 0.33333334, y: 0.33333334, z: 0.33333334}
        outWeight: {x: 0.33333334, y: 0.33333334, z: 0.33333334}
      m_PreInfinity: 2
      m_PostInfinity: 2
      m_RotationOrder: 4
    path: Body/Spine01/Head
  - curve:
      serializedVersion: 2
      m_Curve:
      - serializedVersion: 3
        time: 0
        value: {x: -0.25357038, y: -0.043593448, z: 1.750886e-16}
        inSlope: {x: -0.17730632, y: -0.041073337, z: 0.026344858}
        outSlope: {x: -0.17730632, y: -0.041073337, z: 0.026344858}
        tangentMode: 0
        weightedMode: 0
        inWeight: {x: 0.33333334, y: 0.33333334, z: 0.33333334}
        outWeight: {x: 0.33333334, y: 0.33333334, z: 0.33333334}
      - serializedVersion: 3
        time: 0.033333335
        value: {x: -0.25948045, y: -0.044962604, z: 0.0008781622}
        inSlope: {x: -0.19734983, y: -0.024198068, z: 0.04984163}
        outSlope: {x: -0.1973443, y: -0.024198284, z: 0.049841616}
        tangentMode: 0
        weightedMode: 0
        inWeight: {x: 0.33333334, y: 0.33333334, z: 0.33333334}
        outWeight: {x: 0.33333334, y: 0.33333334, z: 0.33333334}
      - serializedVersion: 3
        time: 0.1
        value: {x: -0.2749944, y: -0.04450249, z: 0.007049031}
        inSlope: {x: -0.25863415, y: 0.032701503, z: 0.12674008}
        outSlope: {x: -0.2586301, y: 0.03270095, z: 0.12673974}
        tangentMode: 0
        weightedMode: 0
        inWeight: {x: 0.33333334, y: 0.33333334, z: 0.33333334}
        outWeight: {x: 0.33333334, y: 0.33333334, z: 0.33333334}
      - serializedVersion: 3
        time: 0.4
        value: {x: -0.3434267, y: -0.024647212, z: 0.051265683}
        inSlope: {x: -0.06693948, y: 0.026331315, z: 0.049841624}
        outSlope: {x: -0.06693725, y: 0.026330646, z: 0.04984153}
        tangentMode: 0
        weightedMode: 0
        inWeight: {x: 0.33333334, y: 0.33333334, z: 0.33333334}
        outWeight: {x: 0.33333334, y: 0.33333334, z: 0.33333334}
      - serializedVersion: 3
        time: 0.46666667
        value: {x: -0.34023082, y: -0.025517102, z: 0.04925541}
        inSlope: {x: 0.23678327, y: -0.07087188, z: -0.15506253}
        outSlope: {x: 0.23677349, y: -0.07087133, z: -0.15506268}
        tangentMode: 0
        weightedMode: 0
        inWeight: {x: 0.33333334, y: 0.33333334, z: 0.33333334}
        outWeight: {x: 0.33333334, y: 0.33333334, z: 0.33333334}
      - serializedVersion: 3
        time: 0.56666666
        value: {x: -0.29482105, y: -0.038054213, z: 0.020523092}
        inSlope: {x: 0.5335585, y: -0.12806132, z: -0.3192485}
        outSlope: {x: 0.53355706, y: -0.12805977, z: -0.3192457}
        tangentMode: 0
        weightedMode: 0
        inWeight: {x: 0.33333334, y: 0.33333334, z: 0.33333334}
        outWeight: {x: 0.33333334, y: 0.33333334, z: 0.33333334}
      - serializedVersion: 3
        time: 0.6
        value: {x: -0.27726677, y: -0.041934147, z: 0.010337553}
        inSlope: {x: 0.48209685, y: -0.09060357, z: -0.26451692}
        outSlope: {x: 0.48210144, y: -0.09060523, z: -0.26452085}
        tangentMode: 0
        weightedMode: 0
        inWeight: {x: 0.33333334, y: 0.33333334, z: 0.33333334}
        outWeight: {x: 0.33333334, y: 0.33333334, z: 0.33333334}
      - serializedVersion: 3
        time: 0.6333333
        value: {x: -0.26268107, y: -0.04409455, z: 0.0028884385}
        inSlope: {x: 0.35544518, y: -0.02488952, z: -0.15506373}
        outSlope: {x: 0.35544628, y: -0.024889389, z: -0.15506247}
        tangentMode: 0
        weightedMode: 0
        inWeight: {x: 0.33333334, y: 0.33333334, z: 0.33333334}
        outWeight: {x: 0.33333334, y: 0.33333334, z: 0.33333334}
      - serializedVersion: 3
        time: 0.6666667
        value: {x: -0.25357038, y: -0.043593448, z: 1.750886e-16}
        inSlope: {x: 0.27332136, y: 0.015033426, z: -0.08665241}
        outSlope: {x: 0.27332136, y: 0.015033426, z: -0.08665241}
        tangentMode: 0
        weightedMode: 0
        inWeight: {x: 0.33333334, y: 0.33333334, z: 0.33333334}
        outWeight: {x: 0.33333334, y: 0.33333334, z: 0.33333334}
      m_PreInfinity: 2
      m_PostInfinity: 2
      m_RotationOrder: 4
    path: Body/Spine01/Head/Crown
  - curve:
      serializedVersion: 2
      m_Curve:
      - serializedVersion: 3
        time: 0
        value: {x: 0.046817802, y: -0.16357186, z: -7.546823e-17}
        inSlope: {x: -0.01363972, y: 0.04018434, z: 0.013269227}
        outSlope: {x: -0.01363972, y: 0.04018434, z: 0.013269227}
        tangentMode: 0
        weightedMode: 0
        inWeight: {x: 0.33333334, y: 0.33333334, z: 0.33333334}
        outWeight: {x: 0.33333334, y: 0.33333334, z: 0.33333334}
      - serializedVersion: 3
        time: 0.033333335
        value: {x: 0.046363164, y: -0.1622323, z: 0.00044230762}
        inSlope: {x: -0.025673727, y: 0.07564467, z: 0.024977371}
        outSlope: {x: -0.025674125, y: 0.07564472, z: 0.02497735}
        tangentMode: 0
        weightedMode: 0
        inWeight: {x: 0.33333334, y: 0.33333334, z: 0.33333334}
        outWeight: {x: 0.33333334, y: 0.33333334, z: 0.33333334}
      - serializedVersion: 3
        time: 0.06666667
        value: {x: 0.045106225, y: -0.15852882, z: 0.0016651581}
        inSlope: {x: -0.047336835, y: 0.13947006, z: 0.046051994}
        outSlope: {x: -0.04733602, y: 0.139472, z: 0.046052016}
        tangentMode: 0
        weightedMode: 0
        inWeight: {x: 0.33333334, y: 0.33333334, z: 0.33333334}
        outWeight: {x: 0.33333334, y: 0.33333334, z: 0.33333334}
      - serializedVersion: 3
        time: 0.33333334
        value: {x: 0.025423069, y: -0.100533724, z: 0.020814475}
        inSlope: {x: -0.04733561, y: 0.13947096, z: 0.046051715}
        outSlope: {x: -0.04733606, y: 0.13947171, z: 0.04605233}
        tangentMode: 0
        weightedMode: 0
        inWeight: {x: 0.33333334, y: 0.33333334, z: 0.33333334}
        outWeight: {x: 0.33333334, y: 0.33333334, z: 0.33333334}
      - serializedVersion: 3
        time: 0.43333334
        value: {x: 0.024704339, y: -0.09841604, z: 0.021513712}
        inSlope: {x: 0.054155506, y: -0.15956588, z: -0.052686848}
        outSlope: {x: 0.054155983, y: -0.15956393, z: -0.05268623}
        tangentMode: 0
        weightedMode: 0
        inWeight: {x: 0.33333334, y: 0.33333334, z: 0.33333334}
        outWeight: {x: 0.33333334, y: 0.33333334, z: 0.33333334}
      - serializedVersion: 3
        time: 0.56666666
        value: {x: 0.039506815, y: -0.14203055, z: 0.007112698}
        inSlope: {x: 0.11914261, y: -0.3510454, z: -0.11591089}
        outSlope: {x: 0.119140826, y: -0.35104182, z: -0.11590984}
        tangentMode: 0
        weightedMode: 0
        inWeight: {x: 0.33333334, y: 0.33333334, z: 0.33333334}
        outWeight: {x: 0.33333334, y: 0.33333334, z: 0.33333334}
      - serializedVersion: 3
        time: 0.6
        value: {x: 0.04320744, y: -0.15293418, z: 0.003512442}
        inSlope: {x: 0.09477106, y: -0.27923703, z: -0.09220063}
        outSlope: {x: 0.09477297, y: -0.27923968, z: -0.09220205}
        tangentMode: 0
        weightedMode: 0
        inWeight: {x: 0.33333334, y: 0.33333334, z: 0.33333334}
        outWeight: {x: 0.33333334, y: 0.33333334, z: 0.33333334}
      - serializedVersion: 3
        time: 0.6333333
        value: {x: 0.045824952, y: -0.16064651, z: 0.00096592313}
        inSlope: {x: 0.05415595, y: -0.15956435, z: -0.052686833}
        outSlope: {x: 0.05415476, y: -0.15956476, z: -0.05268636}
        tangentMode: 0
        weightedMode: 0
        inWeight: {x: 0.33333334, y: 0.33333334, z: 0.33333334}
        outWeight: {x: 0.33333334, y: 0.33333334, z: 0.33333334}
      - serializedVersion: 3
        time: 0.6666667
        value: {x: 0.046817802, y: -0.16357186, z: -7.546823e-17}
        inSlope: {x: 0.029784998, y: -0.08775588, z: -0.028977448}
        outSlope: {x: 0.029784998, y: -0.08775588, z: -0.028977448}
        tangentMode: 0
        weightedMode: 0
        inWeight: {x: 0.33333334, y: 0.33333334, z: 0.33333334}
        outWeight: {x: 0.33333334, y: 0.33333334, z: 0.33333334}
      m_PreInfinity: 2
      m_PostInfinity: 2
      m_RotationOrder: 4
    path: Body/Spine01/Head/EyeCTRL
  - curve:
      serializedVersion: 2
      m_Curve:
      - serializedVersion: 3
        time: 0
        value: {x: -0.12632965, y: 3.5527135e-16, z: 1.0995774e-17}
        inSlope: {x: 0, y: 0, z: 0}
        outSlope: {x: 0, y: 0, z: 0}
        tangentMode: 0
        weightedMode: 0
        inWeight: {x: 0.33333334, y: 0.33333334, z: 0.33333334}
        outWeight: {x: 0.33333334, y: 0.33333334, z: 0.33333334}
      - serializedVersion: 3
        time: 0.6666667
        value: {x: -0.12632965, y: 3.5527135e-16, z: 1.0995774e-17}
        inSlope: {x: 0, y: 0, z: 0}
        outSlope: {x: 0, y: 0, z: 0}
        tangentMode: 0
        weightedMode: 0
        inWeight: {x: 0.33333334, y: 0.33333334, z: 0.33333334}
        outWeight: {x: 0.33333334, y: 0.33333334, z: 0.33333334}
      m_PreInfinity: 2
      m_PostInfinity: 2
      m_RotationOrder: 4
    path: Body/Spine01/Head/EyeCTRL/EyeBall
  - curve:
      serializedVersion: 2
      m_Curve:
      - serializedVersion: 3
        time: 0
        value: {x: -0.27215242, y: 0.12827094, z: -0.30579144}
        inSlope: {x: 0, y: 0, z: 0}
        outSlope: {x: 0, y: 0, z: 0}
        tangentMode: 0
        weightedMode: 0
        inWeight: {x: 0.33333334, y: 0.33333334, z: 0.33333334}
        outWeight: {x: 0.33333334, y: 0.33333334, z: 0.33333334}
      - serializedVersion: 3
        time: 0.6666667
        value: {x: -0.27215242, y: 0.12827094, z: -0.30579144}
        inSlope: {x: 0, y: 0, z: 0}
        outSlope: {x: 0, y: 0, z: 0}
        tangentMode: 0
        weightedMode: 0
        inWeight: {x: 0.33333334, y: 0.33333334, z: 0.33333334}
        outWeight: {x: 0.33333334, y: 0.33333334, z: 0.33333334}
      m_PreInfinity: 2
      m_PostInfinity: 2
      m_RotationOrder: 4
    path: Body/Spine01/Side_L
  - curve:
      serializedVersion: 2
      m_Curve:
      - serializedVersion: 3
        time: 0
        value: {x: -0.27215227, y: 0.12827092, z: 0.305791}
        inSlope: {x: 0, y: 0, z: 0}
        outSlope: {x: 0, y: 0, z: 0}
        tangentMode: 0
        weightedMode: 0
        inWeight: {x: 0.33333334, y: 0.33333334, z: 0.33333334}
        outWeight: {x: 0.33333334, y: 0.33333334, z: 0.33333334}
      - serializedVersion: 3
        time: 0.6666667
        value: {x: -0.27215227, y: 0.12827092, z: 0.305791}
        inSlope: {x: 0, y: 0, z: 0}
        outSlope: {x: 0, y: 0, z: 0}
        tangentMode: 0
        weightedMode: 0
        inWeight: {x: 0.33333334, y: 0.33333334, z: 0.33333334}
        outWeight: {x: 0.33333334, y: 0.33333334, z: 0.33333334}
      m_PreInfinity: 2
      m_PostInfinity: 2
      m_RotationOrder: 4
    path: Body/Spine01/Side_R
  m_ScaleCurves:
  - curve:
      serializedVersion: 2
      m_Curve:
      - serializedVersion: 3
        time: 0
        value: {x: 1, y: 1, z: 1}
        inSlope: {x: 0, y: 0, z: 0}
        outSlope: {x: 0, y: 0, z: 0}
        tangentMode: 0
        weightedMode: 0
        inWeight: {x: 0.33333334, y: 0.33333334, z: 0.33333334}
        outWeight: {x: 0.33333334, y: 0.33333334, z: 0.33333334}
      - serializedVersion: 3
        time: 0.6666667
        value: {x: 1, y: 1, z: 1}
        inSlope: {x: 0, y: 0, z: 0}
        outSlope: {x: 0, y: 0, z: 0}
        tangentMode: 0
        weightedMode: 0
        inWeight: {x: 0.33333334, y: 0.33333334, z: 0.33333334}
        outWeight: {x: 0.33333334, y: 0.33333334, z: 0.33333334}
      m_PreInfinity: 2
      m_PostInfinity: 2
      m_RotationOrder: 4
    path: Body
  - curve:
      serializedVersion: 2
      m_Curve:
      - serializedVersion: 3
        time: 0
        value: {x: 1, y: 1, z: 1}
        inSlope: {x: 0, y: 0, z: 0}
        outSlope: {x: 0, y: 0, z: 0}
        tangentMode: 0
        weightedMode: 0
        inWeight: {x: 0.33333334, y: 0.33333334, z: 0.33333334}
        outWeight: {x: 0.33333334, y: 0.33333334, z: 0.33333334}
      - serializedVersion: 3
        time: 0.6666667
        value: {x: 1, y: 1, z: 1}
        inSlope: {x: 0, y: 0, z: 0}
        outSlope: {x: 0, y: 0, z: 0}
        tangentMode: 0
        weightedMode: 0
        inWeight: {x: 0.33333334, y: 0.33333334, z: 0.33333334}
        outWeight: {x: 0.33333334, y: 0.33333334, z: 0.33333334}
      m_PreInfinity: 2
      m_PostInfinity: 2
      m_RotationOrder: 4
    path: Body/Spine01
  - curve:
      serializedVersion: 2
      m_Curve:
      - serializedVersion: 3
        time: 0
        value: {x: 1, y: 1, z: 1}
        inSlope: {x: 0, y: 0, z: 0}
        outSlope: {x: 0, y: 0, z: 0}
        tangentMode: 0
        weightedMode: 0
        inWeight: {x: 0.33333334, y: 0.33333334, z: 0.33333334}
        outWeight: {x: 0.33333334, y: 0.33333334, z: 0.33333334}
      - serializedVersion: 3
        time: 0.6666667
        value: {x: 1, y: 1, z: 1}
        inSlope: {x: 0, y: 0, z: 0}
        outSlope: {x: 0, y: 0, z: 0}
        tangentMode: 0
        weightedMode: 0
        inWeight: {x: 0.33333334, y: 0.33333334, z: 0.33333334}
        outWeight: {x: 0.33333334, y: 0.33333334, z: 0.33333334}
      m_PreInfinity: 2
      m_PostInfinity: 2
      m_RotationOrder: 4
    path: Body/Spine01/Head
  - curve:
      serializedVersion: 2
      m_Curve:
      - serializedVersion: 3
        time: 0
        value: {x: 1, y: 1, z: 1}
        inSlope: {x: 0, y: 0, z: 0}
        outSlope: {x: 0, y: 0, z: 0}
        tangentMode: 0
        weightedMode: 0
        inWeight: {x: 0.33333334, y: 0.33333334, z: 0.33333334}
        outWeight: {x: 0.33333334, y: 0.33333334, z: 0.33333334}
      - serializedVersion: 3
        time: 0.6666667
        value: {x: 1, y: 1, z: 1}
        inSlope: {x: 0, y: 0, z: 0}
        outSlope: {x: 0, y: 0, z: 0}
        tangentMode: 0
        weightedMode: 0
        inWeight: {x: 0.33333334, y: 0.33333334, z: 0.33333334}
        outWeight: {x: 0.33333334, y: 0.33333334, z: 0.33333334}
      m_PreInfinity: 2
      m_PostInfinity: 2
      m_RotationOrder: 4
    path: Body/Spine01/Head/Crown
  - curve:
      serializedVersion: 2
      m_Curve:
      - serializedVersion: 3
        time: 0
        value: {x: 1, y: 1, z: 1}
        inSlope: {x: 0, y: 0, z: 0}
        outSlope: {x: 0, y: 0, z: 0}
        tangentMode: 0
        weightedMode: 0
        inWeight: {x: 0.33333334, y: 0.33333334, z: 0.33333334}
        outWeight: {x: 0.33333334, y: 0.33333334, z: 0.33333334}
      - serializedVersion: 3
        time: 0.6666667
        value: {x: 1, y: 1, z: 1}
        inSlope: {x: 0, y: 0, z: 0}
        outSlope: {x: 0, y: 0, z: 0}
        tangentMode: 0
        weightedMode: 0
        inWeight: {x: 0.33333334, y: 0.33333334, z: 0.33333334}
        outWeight: {x: 0.33333334, y: 0.33333334, z: 0.33333334}
      m_PreInfinity: 2
      m_PostInfinity: 2
      m_RotationOrder: 4
    path: Body/Spine01/Head/EyeCTRL
  - curve:
      serializedVersion: 2
      m_Curve:
      - serializedVersion: 3
        time: 0
        value: {x: 1, y: 1, z: 1}
        inSlope: {x: 0, y: 0, z: 0}
        outSlope: {x: 0, y: 0, z: 0}
        tangentMode: 0
        weightedMode: 0
        inWeight: {x: 0.33333334, y: 0.33333334, z: 0.33333334}
        outWeight: {x: 0.33333334, y: 0.33333334, z: 0.33333334}
      - serializedVersion: 3
        time: 0.6666667
        value: {x: 1, y: 1, z: 1}
        inSlope: {x: 0, y: 0, z: 0}
        outSlope: {x: 0, y: 0, z: 0}
        tangentMode: 0
        weightedMode: 0
        inWeight: {x: 0.33333334, y: 0.33333334, z: 0.33333334}
        outWeight: {x: 0.33333334, y: 0.33333334, z: 0.33333334}
      m_PreInfinity: 2
      m_PostInfinity: 2
      m_RotationOrder: 4
    path: Body/Spine01/Head/EyeCTRL/UpperEyeCover
  - curve:
      serializedVersion: 2
      m_Curve:
      - serializedVersion: 3
        time: 0
        value: {x: 1, y: 1, z: 1}
        inSlope: {x: 0, y: 0, z: 0}
        outSlope: {x: 0, y: 0, z: 0}
        tangentMode: 0
        weightedMode: 0
        inWeight: {x: 0.33333334, y: 0.33333334, z: 0.33333334}
        outWeight: {x: 0.33333334, y: 0.33333334, z: 0.33333334}
      - serializedVersion: 3
        time: 0.6666667
        value: {x: 1, y: 1, z: 1}
        inSlope: {x: 0, y: 0, z: 0}
        outSlope: {x: 0, y: 0, z: 0}
        tangentMode: 0
        weightedMode: 0
        inWeight: {x: 0.33333334, y: 0.33333334, z: 0.33333334}
        outWeight: {x: 0.33333334, y: 0.33333334, z: 0.33333334}
      m_PreInfinity: 2
      m_PostInfinity: 2
      m_RotationOrder: 4
    path: Body/Spine01/Head/EyeCTRL/EyeBall
  - curve:
      serializedVersion: 2
      m_Curve:
      - serializedVersion: 3
        time: 0
        value: {x: 1, y: 1, z: 1}
        inSlope: {x: 0, y: 0, z: 0}
        outSlope: {x: 0, y: 0, z: 0}
        tangentMode: 0
        weightedMode: 0
        inWeight: {x: 0.33333334, y: 0.33333334, z: 0.33333334}
        outWeight: {x: 0.33333334, y: 0.33333334, z: 0.33333334}
      - serializedVersion: 3
        time: 0.6666667
        value: {x: 1, y: 1, z: 1}
        inSlope: {x: 0, y: 0, z: 0}
        outSlope: {x: 0, y: 0, z: 0}
        tangentMode: 0
        weightedMode: 0
        inWeight: {x: 0.33333334, y: 0.33333334, z: 0.33333334}
        outWeight: {x: 0.33333334, y: 0.33333334, z: 0.33333334}
      m_PreInfinity: 2
      m_PostInfinity: 2
      m_RotationOrder: 4
    path: Body/Spine01/Head/EyeCTRL/BottomEyeCover
  - curve:
      serializedVersion: 2
      m_Curve:
      - serializedVersion: 3
        time: 0
        value: {x: 1, y: 1, z: 1}
        inSlope: {x: 0, y: 0, z: 0}
        outSlope: {x: 0, y: 0, z: 0}
        tangentMode: 0
        weightedMode: 0
        inWeight: {x: 0.33333334, y: 0.33333334, z: 0.33333334}
        outWeight: {x: 0.33333334, y: 0.33333334, z: 0.33333334}
      - serializedVersion: 3
        time: 0.6666667
        value: {x: 1, y: 1, z: 1}
        inSlope: {x: 0, y: 0, z: 0}
        outSlope: {x: 0, y: 0, z: 0}
        tangentMode: 0
        weightedMode: 0
        inWeight: {x: 0.33333334, y: 0.33333334, z: 0.33333334}
        outWeight: {x: 0.33333334, y: 0.33333334, z: 0.33333334}
      m_PreInfinity: 2
      m_PostInfinity: 2
      m_RotationOrder: 4
    path: Body/Spine01/Side_L
  - curve:
      serializedVersion: 2
      m_Curve:
      - serializedVersion: 3
        time: 0
        value: {x: 1, y: 1, z: 1}
        inSlope: {x: 0, y: 0, z: 0}
        outSlope: {x: 0, y: 0, z: 0}
        tangentMode: 0
        weightedMode: 0
        inWeight: {x: 0.33333334, y: 0.33333334, z: 0.33333334}
        outWeight: {x: 0.33333334, y: 0.33333334, z: 0.33333334}
      - serializedVersion: 3
        time: 0.6666667
        value: {x: 1, y: 1, z: 1}
        inSlope: {x: 0, y: 0, z: 0}
        outSlope: {x: 0, y: 0, z: 0}
        tangentMode: 0
        weightedMode: 0
        inWeight: {x: 0.33333334, y: 0.33333334, z: 0.33333334}
        outWeight: {x: 0.33333334, y: 0.33333334, z: 0.33333334}
      m_PreInfinity: 2
      m_PostInfinity: 2
      m_RotationOrder: 4
    path: Body/Spine01/Side_R
  m_FloatCurves: []
  m_PPtrCurves: []
  m_SampleRate: 30
  m_WrapMode: 0
  m_Bounds:
    m_Center: {x: 0, y: 0, z: 0}
    m_Extent: {x: 0, y: 0, z: 0}
  m_ClipBindingConstant:
    genericBindings: []
    pptrCurveMapping: []
  m_AnimationClipSettings:
    serializedVersion: 2
    m_AdditiveReferencePoseClip: {fileID: 0}
    m_AdditiveReferencePoseTime: 0
    m_StartTime: 0
    m_StopTime: 0.6666667
    m_OrientationOffsetY: 0
    m_Level: 0
    m_CycleOffset: 0
    m_HasAdditiveReferencePose: 0
    m_LoopTime: 1
    m_LoopBlend: 0
    m_LoopBlendOrientation: 0
    m_LoopBlendPositionY: 0
    m_LoopBlendPositionXZ: 0
    m_KeepOriginalOrientation: 0
    m_KeepOriginalPositionY: 1
    m_KeepOriginalPositionXZ: 0
    m_HeightFromFeet: 0
    m_Mirror: 0
  m_EditorCurves: []
  m_EulerEditorCurves: []
  m_HasGenericRootTransform: 0
  m_HasMotionFloatCurves: 0
  m_Events: []
