%YAML 1.1
%TAG !u! tag:unity3d.com,2011:
--- !u!114 &11400000
MonoBehaviour:
  m_ObjectHideFlags: 0
  m_CorrespondingSourceObject: {fileID: 0}
  m_PrefabInstance: {fileID: 0}
  m_PrefabAsset: {fileID: 0}
  m_GameObject: {fileID: 0}
  m_Enabled: 1
  m_EditorHideFlags: 0
  m_Script: {fileID: 11500000, guid: 8ac241be30e64a24dafc4e68473b52f5, type: 3}
  m_Name: RagdollConfig
  m_EditorClassIdentifier: 
  width: 4
  height: 4
  currentRagdollPower:
  - 0
  - 0
  - 0
  - 0
  - 0
  - 5
  - 6
  - 7
  - 0
  - 9
  - 25
  - 11
  - 0
  - 13
  - 14
  - 15
