%YAML 1.1
%TAG !u! tag:unity3d.com,2011:
--- !u!1045 &1
EditorBuildSettings:
  m_ObjectHideFlags: 0
  serializedVersion: 2
  m_Scenes:
  - enabled: 1
    path: Assets/Scenes/LevelTest.unity
    guid: f5a54f024825063409d2ff7eeda06fbd
  - enabled: 1
    path: Assets/Scenes/LevelTest2.unity
    guid: bab0991caeb683d429ad0cfef2aff390
  - enabled: 1
    path: Assets/Scenes/CellLogicTest.unity
    guid: 99c9720ab356a0642a771bea13969a05
  - enabled: 1
    path: Assets/Scenes/MainMenu.unity
    guid: fdb62b1fbbed0374097ded37f41b6005
  m_configObjects: {}
