%YAML 1.1
%TAG !u! tag:unity3d.com,2011:
--- !u!74 &7400000
AnimationClip:
  m_ObjectHideFlags: 0
  m_CorrespondingSourceObject: {fileID: 0}
  m_PrefabInstance: {fileID: 0}
  m_PrefabAsset: {fileID: 0}
  m_Name: Invader_turtleshell_run
  serializedVersion: 7
  m_Legacy: 0
  m_Compressed: 0
  m_UseHighQualityCurve: 0
  m_RotationCurves:
  - curve:
      serializedVersion: 2
      m_Curve:
      - serializedVersion: 3
        time: 0
        value: {x: 0.036887553, y: 0.706144, z: 0.036887553, w: 0.706144}
        inSlope: {x: 0, y: 0, z: 0, w: 0}
        outSlope: {x: 0, y: 0, z: 0, w: 0}
        tangentMode: 0
        weightedMode: 0
        inWeight: {x: 0.33333334, y: 0.33333334, z: 0.33333334, w: 0.33333334}
        outWeight: {x: 0.33333334, y: 0.33333334, z: 0.33333334, w: 0.33333334}
      - serializedVersion: 3
        time: 0.53333336
        value: {x: 0.036887553, y: 0.706144, z: 0.036887553, w: 0.706144}
        inSlope: {x: 0, y: 0, z: 0, w: 0}
        outSlope: {x: 0, y: 0, z: 0, w: 0}
        tangentMode: 0
        weightedMode: 0
        inWeight: {x: 0.33333334, y: 0.33333334, z: 0.33333334, w: 0.33333334}
        outWeight: {x: 0.33333334, y: 0.33333334, z: 0.33333334, w: 0.33333334}
      m_PreInfinity: 2
      m_PostInfinity: 2
      m_RotationOrder: 4
    path: Body
  - curve:
      serializedVersion: 2
      m_Curve:
      - serializedVersion: 3
        time: 0
        value: {x: 5.551115e-17, y: 5.551115e-17, z: -0.092510164, w: 0.99571174}
        inSlope: {x: 1.6653349e-15, y: 0, z: 0.01593344, w: 0.001477003}
        outSlope: {x: 1.6653349e-15, y: 0, z: 0.01593344, w: 0.001477003}
        tangentMode: 0
        weightedMode: 0
        inWeight: {x: 0.33333334, y: 0.33333334, z: 0.33333334, w: 0.33333334}
        outWeight: {x: 0.33333334, y: 0.33333334, z: 0.33333334, w: 0.33333334}
      - serializedVersion: 3
        time: 0.43333337
        value: {x: 5.55112e-17, y: 5.551115e-17, z: -0.08641291, w: 0.9962594}
        inSlope: {x: 1.6653349e-15, y: -4.963084e-23, z: -0.09487298, w: -0.008215607}
        outSlope: {x: 1.6653349e-15, y: -4.963084e-23, z: -0.09487298, w: -0.008215607}
        tangentMode: 0
        weightedMode: 0
        inWeight: {x: 0.33333334, y: 0.33333334, z: 0.33333334, w: 0.33333334}
        outWeight: {x: 0.33333334, y: 0.33333334, z: 0.33333334, w: 0.33333334}
      - serializedVersion: 3
        time: 0.53333336
        value: {x: 5.551115e-17, y: 5.551115e-17, z: -0.092510164, w: 0.99571174}
        inSlope: {x: -1.6653332e-15, y: 0, z: -0.025737785, w: -0.0023800114}
        outSlope: {x: -1.6653332e-15, y: 0, z: -0.025737785, w: -0.0023800114}
        tangentMode: 0
        weightedMode: 0
        inWeight: {x: 0.33333334, y: 0.33333334, z: 0.33333334, w: 0.33333334}
        outWeight: {x: 0.33333334, y: 0.33333334, z: 0.33333334, w: 0.33333334}
      m_PreInfinity: 2
      m_PostInfinity: 2
      m_RotationOrder: 4
    path: Body/Spine01
  - curve:
      serializedVersion: 2
      m_Curve:
      - serializedVersion: 3
        time: 0
        value: {x: -5.5511148e-17, y: 1.110223e-16, z: -0.12665388, w: 0.991947}
        inSlope: {x: -1.6653344e-15, y: -1.6653344e-15, z: -0.018088816, w: -0.0023156402}
        outSlope: {x: -1.6653344e-15, y: -1.6653344e-15, z: -0.018088816, w: -0.0023156402}
        tangentMode: 0
        weightedMode: 0
        inWeight: {x: 0.33333334, y: 0.33333334, z: 0.33333334, w: 0.33333334}
        outWeight: {x: 0.33333334, y: 0.33333334, z: 0.33333334, w: 0.33333334}
      - serializedVersion: 3
        time: 0.43333337
        value: {x: -1.1102234e-16, y: 5.5511184e-17, z: -0.13741355, w: 0.9905138}
        inSlope: {x: -8.32667e-16, y: 8.326669e-16, z: 0.1553026, w: 0.021544399}
        outSlope: {x: -8.32667e-16, y: 8.326669e-16, z: 0.1553026, w: 0.021544399}
        tangentMode: 0
        weightedMode: 0
        inWeight: {x: 0.33333334, y: 0.33333334, z: 0.33333334, w: 0.33333334}
        outWeight: {x: 0.33333334, y: 0.33333334, z: 0.33333334, w: 0.33333334}
      - serializedVersion: 3
        time: 0.53333336
        value: {x: -5.5511148e-17, y: 1.110223e-16, z: -0.12665388, w: 0.991947}
        inSlope: {x: 9.926159e-23, y: 3.3306663e-15, z: 0.04785012, w: 0.006149406}
        outSlope: {x: 9.926159e-23, y: 3.3306663e-15, z: 0.04785012, w: 0.006149406}
        tangentMode: 0
        weightedMode: 0
        inWeight: {x: 0.33333334, y: 0.33333334, z: 0.33333334, w: 0.33333334}
        outWeight: {x: 0.33333334, y: 0.33333334, z: 0.33333334, w: 0.33333334}
      m_PreInfinity: 2
      m_PostInfinity: 2
      m_RotationOrder: 4
    path: Body/Spine01/Spine02
  - curve:
      serializedVersion: 2
      m_Curve:
      - serializedVersion: 3
        time: 0
        value: {x: -5.551115e-17, y: 5.551115e-17, z: 0.052788194, w: 0.9986057}
        inSlope: {x: 9.926167e-23, y: -2.4980016e-15, z: 0.013185403, w: -0.0006991624}
        outSlope: {x: 9.926167e-23, y: -2.4980016e-15, z: 0.013185403, w: -0.0006991624}
        tangentMode: 0
        weightedMode: 0
        inWeight: {x: 0.33333334, y: 0.33333334, z: 0.33333334, w: 0.33333334}
        outWeight: {x: 0.33333334, y: 0.33333334, z: 0.33333334, w: 0.33333334}
      - serializedVersion: 3
        time: 0.4666667
        value: {x: -1.1635524e-23, y: 2.775559e-17, z: 0.059429523, w: 0.99823254}
        inSlope: {x: -4.1633366e-16, y: 4.163338e-16, z: -0.15392394, w: 0.009233061}
        outSlope: {x: -4.1633366e-16, y: 4.163338e-16, z: -0.15392394, w: 0.009233061}
        tangentMode: 0
        weightedMode: 0
        inWeight: {x: 0.33333334, y: 0.33333334, z: 0.33333334, w: 0.33333334}
        outWeight: {x: 0.33333334, y: 0.33333334, z: 0.33333334, w: 0.33333334}
      - serializedVersion: 3
        time: 0.53333336
        value: {x: -5.551115e-17, y: 5.551115e-17, z: 0.052788194, w: 0.9986057}
        inSlope: {x: -8.326666e-16, y: 9.926159e-23, z: -0.058873992, w: 0.0031703685}
        outSlope: {x: -8.326666e-16, y: 9.926159e-23, z: -0.058873992, w: 0.0031703685}
        tangentMode: 0
        weightedMode: 0
        inWeight: {x: 0.33333334, y: 0.33333334, z: 0.33333334, w: 0.33333334}
        outWeight: {x: 0.33333334, y: 0.33333334, z: 0.33333334, w: 0.33333334}
      m_PreInfinity: 2
      m_PostInfinity: 2
      m_RotationOrder: 4
    path: Body/Spine01/Spine02/Head
  - curve:
      serializedVersion: 2
      m_Curve:
      - serializedVersion: 3
        time: 0
        value: {x: -0.43952665, y: -0.55391, z: -0.43952665, w: 0.55391}
        inSlope: {x: 0.014208554, y: -0.011267065, z: 0.014208554, w: 0.011267065}
        outSlope: {x: 0.014208554, y: -0.011267065, z: 0.014208554, w: 0.011267065}
        tangentMode: 0
        weightedMode: 0
        inWeight: {x: 0.33333334, y: 0.33333334, z: 0.33333334, w: 0.33333334}
        outWeight: {x: 0.33333334, y: 0.33333334, z: 0.33333334, w: 0.33333334}
      - serializedVersion: 3
        time: 0.36666667
        value: {x: -0.41775575, y: -0.5705087, z: -0.41775575, w: 0.5705087}
        inSlope: {x: -0.027866334, y: 0.020516194, z: -0.027866334, w: -0.020516194}
        outSlope: {x: -0.027866334, y: 0.020516194, z: -0.027866334, w: -0.020516194}
        tangentMode: 0
        weightedMode: 0
        inWeight: {x: 0.33333334, y: 0.33333334, z: 0.33333334, w: 0.33333334}
        outWeight: {x: 0.33333334, y: 0.33333334, z: 0.33333334, w: 0.33333334}
      - serializedVersion: 3
        time: 0.53333336
        value: {x: -0.43952665, y: -0.55391, z: -0.43952665, w: 0.55391}
        inSlope: {x: -0.063830264, y: 0.05045231, z: -0.063830264, w: -0.05045231}
        outSlope: {x: -0.063830264, y: 0.05045231, z: -0.063830264, w: -0.05045231}
        tangentMode: 0
        weightedMode: 0
        inWeight: {x: 0.33333334, y: 0.33333334, z: 0.33333334, w: 0.33333334}
        outWeight: {x: 0.33333334, y: 0.33333334, z: 0.33333334, w: 0.33333334}
      m_PreInfinity: 2
      m_PostInfinity: 2
      m_RotationOrder: 4
    path: Body/Spine01/Spine02/Head/Eyeball
  - curve:
      serializedVersion: 2
      m_Curve:
      - serializedVersion: 3
        time: 0
        value: {x: -0.4642896, y: -0.53332466, z: -0.4642896, w: 0.53332466}
        inSlope: {x: 0.025592742, y: -0.022242663, z: 0.025592742, w: 0.022242663}
        outSlope: {x: 0.025592742, y: -0.022242663, z: 0.025592742, w: 0.022242663}
        tangentMode: 0
        weightedMode: 0
        inWeight: {x: 0.33333334, y: 0.33333334, z: 0.33333334, w: 0.33333334}
        outWeight: {x: 0.33333334, y: 0.33333334, z: 0.33333334, w: 0.33333334}
      - serializedVersion: 3
        time: 0.33333334
        value: {x: -0.42984617, y: -0.5614555, z: -0.42984617, w: 0.5614555}
        inSlope: {x: 0.046999905, y: -0.036080185, z: 0.046999905, w: 0.036080185}
        outSlope: {x: 0.046999905, y: -0.036080185, z: 0.046999905, w: 0.036080185}
        tangentMode: 0
        weightedMode: 0
        inWeight: {x: 0.33333334, y: 0.33333334, z: 0.33333334, w: 0.33333334}
        outWeight: {x: 0.33333334, y: 0.33333334, z: 0.33333334, w: 0.33333334}
      - serializedVersion: 3
        time: 0.4666667
        value: {x: -0.45159015, y: -0.5441198, z: -0.45159015, w: 0.5441198}
        inSlope: {x: -0.28800547, y: 0.23846906, z: -0.28800547, w: -0.23846906}
        outSlope: {x: -0.28800547, y: 0.23846906, z: -0.28800547, w: -0.23846906}
        tangentMode: 0
        weightedMode: 0
        inWeight: {x: 0.33333334, y: 0.33333334, z: 0.33333334, w: 0.33333334}
        outWeight: {x: 0.33333334, y: 0.33333334, z: 0.33333334, w: 0.33333334}
      - serializedVersion: 3
        time: 0.53333336
        value: {x: -0.4642896, y: -0.53332466, z: -0.4642896, w: 0.53332466}
        inSlope: {x: -0.11388739, y: 0.09843699, z: -0.11388739, w: -0.09843699}
        outSlope: {x: -0.11388739, y: 0.09843699, z: -0.11388739, w: -0.09843699}
        tangentMode: 0
        weightedMode: 0
        inWeight: {x: 0.33333334, y: 0.33333334, z: 0.33333334, w: 0.33333334}
        outWeight: {x: 0.33333334, y: 0.33333334, z: 0.33333334, w: 0.33333334}
      m_PreInfinity: 2
      m_PostInfinity: 2
      m_RotationOrder: 4
    path: Body/Spine01/Spine02/Head/UpperCover
  - curve:
      serializedVersion: 2
      m_Curve:
      - serializedVersion: 3
        time: 0
        value: {x: 0.5737139, y: 0.41334292, z: 0.5737139, w: -0.41334292}
        inSlope: {x: -0.0016236304, y: 0.0022548435, z: -0.0016236304, w: -0.0022548435}
        outSlope: {x: -0.0016236304, y: 0.0022548435, z: -0.0016236304, w: -0.0022548435}
        tangentMode: 0
        weightedMode: 0
        inWeight: {x: 0.33333334, y: 0.33333334, z: 0.33333334, w: 0.33333334}
        outWeight: {x: 0.33333334, y: 0.33333334, z: 0.33333334, w: 0.33333334}
      - serializedVersion: 3
        time: 0.53333336
        value: {x: 0.5737139, y: 0.41334292, z: 0.5737139, w: -0.41334292}
        inSlope: {x: 0.0072562634, y: -0.01006811, z: 0.0072562634, w: 0.01006811}
        outSlope: {x: 0.0072562634, y: -0.01006811, z: 0.0072562634, w: 0.01006811}
        tangentMode: 0
        weightedMode: 0
        inWeight: {x: 0.33333334, y: 0.33333334, z: 0.33333334, w: 0.33333334}
        outWeight: {x: 0.33333334, y: 0.33333334, z: 0.33333334, w: 0.33333334}
      m_PreInfinity: 2
      m_PostInfinity: 2
      m_RotationOrder: 4
    path: Body/Spine01/Spine02/Head/BottomCover
  - curve:
      serializedVersion: 2
      m_Curve:
      - serializedVersion: 3
        time: 0
        value: {x: 2.7755582e-17, y: 2.775558e-17, z: 0.044605237, w: 0.9990047}
        inSlope: {x: -2.498002e-15, y: -1.6653346e-15, z: 0.015105194, w: -0.00067770475}
        outSlope: {x: -2.498002e-15, y: -1.6653346e-15, z: 0.015105194, w: -0.00067770475}
        tangentMode: 0
        weightedMode: 0
        inWeight: {x: 0.33333334, y: 0.33333334, z: 0.33333334, w: 0.33333334}
        outWeight: {x: 0.33333334, y: 0.33333334, z: 0.33333334, w: 0.33333334}
      - serializedVersion: 3
        time: 0.43333337
        value: {x: -8.326673e-17, y: -3.6128772e-23, z: 0.050383285, w: 0.99872994}
        inSlope: {x: 4.963084e-22, y: -1.2490013e-15, z: -0.08986753, w: 0.0045445566}
        outSlope: {x: 4.963084e-22, y: -1.2490013e-15, z: -0.08986753, w: 0.0045445566}
        tangentMode: 0
        weightedMode: 0
        inWeight: {x: 0.33333334, y: 0.33333334, z: 0.33333334, w: 0.33333334}
        outWeight: {x: 0.33333334, y: 0.33333334, z: 0.33333334, w: 0.33333334}
      - serializedVersion: 3
        time: 0.53333336
        value: {x: 2.7755582e-17, y: 2.775558e-17, z: 0.044605237, w: 0.9990047}
        inSlope: {x: 2.4979997e-15, y: 1.6653332e-15, z: -0.024398917, w: 0.0010997048}
        outSlope: {x: 2.4979997e-15, y: 1.6653332e-15, z: -0.024398917, w: 0.0010997048}
        tangentMode: 0
        weightedMode: 0
        inWeight: {x: 0.33333334, y: 0.33333334, z: 0.33333334, w: 0.33333334}
        outWeight: {x: 0.33333334, y: 0.33333334, z: 0.33333334, w: 0.33333334}
      m_PreInfinity: 2
      m_PostInfinity: 2
      m_RotationOrder: 4
    path: Body/Spine01/Shell
  - curve:
      serializedVersion: 2
      m_Curve:
      - serializedVersion: 3
        time: 0
        value: {x: 0.000000004503562, y: -0.000000017409898, z: 0.9681334, w: -0.25043505}
        inSlope: {x: 0.000000002823408, y: 7.385558e-10, z: 0.040218826, w: 0.15722795}
        outSlope: {x: 0.000000002823408, y: 7.385558e-10, z: 0.040218826, w: 0.15722795}
        tangentMode: 0
        weightedMode: 0
        inWeight: {x: 0.33333334, y: 0.33333334, z: 0.33333334, w: 0.33333334}
        outWeight: {x: 0.33333334, y: 0.33333334, z: 0.33333334, w: 0.33333334}
      - serializedVersion: 3
        time: 0.13333334
        value: {x: 0.0000000056677156, y: -0.000000017066446, z: 0.9828217, w: -0.18455756}
        inSlope: {x: 0.000000013480012, y: 0.000000004484733, z: 0.1453829, w: 0.77650404}
        outSlope: {x: 0.000000013480012, y: 0.000000004484733, z: 0.1453829, w: 0.77650404}
        tangentMode: 0
        weightedMode: 0
        inWeight: {x: 0.33333334, y: 0.33333334, z: 0.33333334, w: 0.33333334}
        outWeight: {x: 0.33333334, y: 0.33333334, z: 0.33333334, w: 0.33333334}
      - serializedVersion: 3
        time: 0.36666667
        value: {x: 0.0000000066970554, y: -0.000000016689398, z: 0.99224085, w: -0.124330685}
        inSlope: {x: -0.000000012858461, y: -0.0000000050894466, z: -0.0992104, w: -0.7625805}
        outSlope: {x: -0.000000012858461, y: -0.0000000050894466, z: -0.0992104, w: -0.7625805}
        tangentMode: 0
        weightedMode: 0
        inWeight: {x: 0.33333334, y: 0.33333334, z: 0.33333334, w: 0.33333334}
        outWeight: {x: 0.33333334, y: 0.33333334, z: 0.33333334, w: 0.33333334}
      - serializedVersion: 3
        time: 0.5
        value: {x: 0.000000004655881, y: -0.000000017369782, z: 0.9702898, w: -0.24194567}
        inSlope: {x: -0.00000000825975, y: -0.0000000022771662, z: -0.111978695, w: -0.46310306}
        outSlope: {x: -0.00000000825975, y: -0.0000000022771662, z: -0.111978695,
          w: -0.46310306}
        tangentMode: 0
        weightedMode: 0
        inWeight: {x: 0.33333334, y: 0.33333334, z: 0.33333334, w: 0.33333334}
        outWeight: {x: 0.33333334, y: 0.33333334, z: 0.33333334, w: 0.33333334}
      - serializedVersion: 3
        time: 0.53333336
        value: {x: 0.000000004503562, y: -0.000000017409898, z: 0.9681334, w: -0.25043505}
        inSlope: {x: -0.0000000045695674, y: -0.000000001203463, z: -0.06469304, w: -0.25468135}
        outSlope: {x: -0.0000000045695674, y: -0.000000001203463, z: -0.06469304,
          w: -0.25468135}
        tangentMode: 0
        weightedMode: 0
        inWeight: {x: 0.33333334, y: 0.33333334, z: 0.33333334, w: 0.33333334}
        outWeight: {x: 0.33333334, y: 0.33333334, z: 0.33333334, w: 0.33333334}
      m_PreInfinity: 2
      m_PostInfinity: 2
      m_RotationOrder: 4
    path: Body/Spine01/Shell/HornMid01
  - curve:
      serializedVersion: 2
      m_Curve:
      - serializedVersion: 3
        time: 0
        value: {x: 1.4348309e-15, y: -0.00000002425134, z: -0.7650651, w: 0.64395297}
        inSlope: {x: 0.0000000050206164, y: 1.7372768e-11, z: -0.13276935, w: -0.15884934}
        outSlope: {x: 0.0000000050206164, y: 1.7372768e-11, z: -0.13276935, w: -0.15884934}
        tangentMode: 0
        weightedMode: 0
        inWeight: {x: 0.33333334, y: 0.33333334, z: 0.33333334, w: 0.33333334}
        outWeight: {x: 0.33333334, y: 0.33333334, z: 0.33333334, w: 0.33333334}
      - serializedVersion: 3
        time: 0.10000001
        value: {x: 0.000000001332317, y: -0.000000024214716, z: -0.799287, w: 0.60094947}
        inSlope: {x: 0.000000023472165, y: 0.0000000013706902, z: -0.58002144, w: -0.77687943}
        outSlope: {x: 0.000000023472165, y: 0.0000000013706902, z: -0.58002144, w: -0.77687943}
        tangentMode: 0
        weightedMode: 0
        inWeight: {x: 0.33333334, y: 0.33333334, z: 0.33333334, w: 0.33333334}
        outWeight: {x: 0.33333334, y: 0.33333334, z: 0.33333334, w: 0.33333334}
      - serializedVersion: 3
        time: 0.26666668
        value: {x: 0.000000005161644, y: -0.000000023695673, z: -0.8845939, w: 0.46636212}
        inSlope: {x: 0.000000009597204, y: 0.0000000020273385, z: -0.19087942, w: -0.35659927}
        outSlope: {x: 0.000000009597204, y: 0.0000000020273385, z: -0.19087942, w: -0.35659927}
        tangentMode: 0
        weightedMode: 0
        inWeight: {x: 0.33333334, y: 0.33333334, z: 0.33333334, w: 0.33333334}
        outWeight: {x: 0.33333334, y: 0.33333334, z: 0.33333334, w: 0.33333334}
      - serializedVersion: 3
        time: 0.36666667
        value: {x: 0.000000004312211, y: -0.000000023864876, z: -0.8673766, w: 0.4976523}
        inSlope: {x: -0.000000027123795, y: -0.0000000047161457, z: 0.57144433, w: 0.98091155}
        outSlope: {x: -0.000000027123795, y: -0.0000000047161457, z: 0.57144433, w: 0.98091155}
        tangentMode: 0
        weightedMode: 0
        inWeight: {x: 0.33333334, y: 0.33333334, z: 0.33333334, w: 0.33333334}
        outWeight: {x: 0.33333334, y: 0.33333334, z: 0.33333334, w: 0.33333334}
      - serializedVersion: 3
        time: 0.4666667
        value: {x: 0.0000000010067053, y: -0.000000024230436, z: -0.791137, w: 0.611639}
        inSlope: {x: -0.000000026910415, y: -0.0000000012994144, z: 0.67356646, w: 0.8834584}
        outSlope: {x: -0.000000026910415, y: -0.0000000012994144, z: 0.67356646, w: 0.8834584}
        tangentMode: 0
        weightedMode: 0
        inWeight: {x: 0.33333334, y: 0.33333334, z: 0.33333334, w: 0.33333334}
        outWeight: {x: 0.33333334, y: 0.33333334, z: 0.33333334, w: 0.33333334}
      - serializedVersion: 3
        time: 0.53333336
        value: {x: 1.4348309e-15, y: -0.00000002425134, z: -0.7650651, w: 0.64395297}
        inSlope: {x: -0.000000008156643, y: -4.5776678e-11, z: 0.21514517, w: 0.25853613}
        outSlope: {x: -0.000000008156643, y: -4.5776678e-11, z: 0.21514517, w: 0.25853613}
        tangentMode: 0
        weightedMode: 0
        inWeight: {x: 0.33333334, y: 0.33333334, z: 0.33333334, w: 0.33333334}
        outWeight: {x: 0.33333334, y: 0.33333334, z: 0.33333334, w: 0.33333334}
      m_PreInfinity: 2
      m_PostInfinity: 2
      m_RotationOrder: 4
    path: Body/Spine01/Shell/HornMid02
  - curve:
      serializedVersion: 2
      m_Curve:
      - serializedVersion: 3
        time: 0
        value: {x: -0.000000005601928, y: -0.000000012587479, z: -0.40659255, w: 0.9136096}
        inSlope: {x: 0.0000000027423661, y: -0.0000000012085798, z: -0.19840209, w: -0.0891602}
        outSlope: {x: 0.0000000027423661, y: -0.0000000012085798, z: -0.19840209,
          w: -0.0891602}
        tangentMode: 0
        weightedMode: 0
        inWeight: {x: 0.33333334, y: 0.33333334, z: 0.33333334, w: 0.33333334}
        outWeight: {x: 0.33333334, y: 0.33333334, z: 0.33333334, w: 0.33333334}
      - serializedVersion: 3
        time: 0.10000001
        value: {x: -0.0000000047781126, y: -0.000000012922687, z: -0.46469137, w: 0.8854727}
        inSlope: {x: 0.000000016328604, y: -0.0000000059222893, z: -1.1126401, w: -0.59275836}
        outSlope: {x: 0.000000016328604, y: -0.0000000059222893, z: -1.1126401, w: -0.59275836}
        tangentMode: 0
        weightedMode: 0
        inWeight: {x: 0.33333334, y: 0.33333334, z: 0.33333334, w: 0.33333334}
        outWeight: {x: 0.33333334, y: 0.33333334, z: 0.33333334, w: 0.33333334}
      - serializedVersion: 3
        time: 0.20000002
        value: {x: -0.0000000026691114, y: -0.000000013516732, z: -0.5991857, w: 0.80061007}
        inSlope: {x: 0.000000020780028, y: -0.0000000041913664, z: -1.2355683, w: -0.91688526}
        outSlope: {x: 0.000000020780028, y: -0.0000000041913664, z: -1.2355683, w: -0.91688526}
        tangentMode: 0
        weightedMode: 0
        inWeight: {x: 0.33333334, y: 0.33333334, z: 0.33333334, w: 0.33333334}
        outWeight: {x: 0.33333334, y: 0.33333334, z: 0.33333334, w: 0.33333334}
      - serializedVersion: 3
        time: 0.33333334
        value: {x: -0.0000000016878167, y: -0.000000013673971, z: -0.65533876, w: 0.7553351}
        inSlope: {x: -0.000000014264596, y: 0.0000000019873572, z: 0.8001817, w: 0.6726337}
        outSlope: {x: -0.000000014264596, y: 0.0000000019873572, z: 0.8001817, w: 0.6726337}
        tangentMode: 0
        weightedMode: 0
        inWeight: {x: 0.33333334, y: 0.33333334, z: 0.33333334, w: 0.33333334}
        outWeight: {x: 0.33333334, y: 0.33333334, z: 0.33333334, w: 0.33333334}
      - serializedVersion: 3
        time: 0.40000004
        value: {x: -0.000000003304816, y: -0.000000013375514, z: -0.56068647, w: 0.8280282}
        inSlope: {x: -0.000000028081178, y: 0.000000006971435, z: 1.7401898, w: 1.1755214}
        outSlope: {x: -0.000000028081178, y: 0.000000006971435, z: 1.7401898, w: 1.1755214}
        tangentMode: 0
        weightedMode: 0
        inWeight: {x: 0.33333334, y: 0.33333334, z: 0.33333334, w: 0.33333334}
        outWeight: {x: 0.33333334, y: 0.33333334, z: 0.33333334, w: 0.33333334}
      - serializedVersion: 3
        time: 0.5
        value: {x: -0.0000000054514113, y: -0.000000012653391, z: -0.41745934, w: 0.90869564}
        inSlope: {x: -0.000000009061797, y: 0.0000000037776067, z: 0.6439504, w: 0.3051095}
        outSlope: {x: -0.000000009061797, y: 0.0000000037776067, z: 0.6439504, w: 0.3051095}
        tangentMode: 0
        weightedMode: 0
        inWeight: {x: 0.33333334, y: 0.33333334, z: 0.33333334, w: 0.33333334}
        outWeight: {x: 0.33333334, y: 0.33333334, z: 0.33333334, w: 0.33333334}
      - serializedVersion: 3
        time: 0.53333336
        value: {x: -0.000000005601928, y: -0.000000012587479, z: -0.40659255, w: 0.9136096}
        inSlope: {x: -0.000000004515491, y: 0.0000000019773767, z: 0.32600346, w: 0.14741945}
        outSlope: {x: -0.000000004515491, y: 0.0000000019773767, z: 0.32600346, w: 0.14741945}
        tangentMode: 0
        weightedMode: 0
        inWeight: {x: 0.33333334, y: 0.33333334, z: 0.33333334, w: 0.33333334}
        outWeight: {x: 0.33333334, y: 0.33333334, z: 0.33333334, w: 0.33333334}
      m_PreInfinity: 2
      m_PostInfinity: 2
      m_RotationOrder: 4
    path: Body/Spine01/Shell/HornMid03
  - curve:
      serializedVersion: 2
      m_Curve:
      - serializedVersion: 3
        time: 0
        value: {x: -0.26555535, y: -0.26175007, z: -0.65684664, w: 0.65537757}
        inSlope: {x: 0.05026817, y: -0.05067676, z: -0.12506247, w: -0.1261425}
        outSlope: {x: 0.05026817, y: -0.05067676, z: -0.12506247, w: -0.1261425}
        tangentMode: 0
        weightedMode: 0
        inWeight: {x: 0.33333334, y: 0.33333334, z: 0.33333334, w: 0.33333334}
        outWeight: {x: 0.33333334, y: 0.33333334, z: 0.33333334, w: 0.33333334}
      - serializedVersion: 3
        time: 0.10000001
        value: {x: -0.2503199, y: -0.27635616, z: -0.69287634, w: 0.61716264}
        inSlope: {x: 0.30604565, y: -0.27422547, z: -0.67603195, w: -0.7672503}
        outSlope: {x: 0.30604565, y: -0.27422547, z: -0.67603195, w: -0.7672503}
        tangentMode: 0
        weightedMode: 0
        inWeight: {x: 0.33333334, y: 0.33333334, z: 0.33333334, w: 0.33333334}
        outWeight: {x: 0.33333334, y: 0.33333334, z: 0.33333334, w: 0.33333334}
      - serializedVersion: 3
        time: 0.20000002
        value: {x: -0.20969133, y: -0.3083217, z: -0.7715767, w: 0.5153995}
        inSlope: {x: 0.4117313, y: -0.2821719, z: -0.69361466, w: -1.0304048}
        outSlope: {x: 0.4117313, y: -0.2821719, z: -0.69361466, w: -1.0304048}
        tangentMode: 0
        weightedMode: 0
        inWeight: {x: 0.33333334, y: 0.33333334, z: 0.33333334, w: 0.33333334}
        outWeight: {x: 0.33333334, y: 0.33333334, z: 0.33333334, w: 0.33333334}
      - serializedVersion: 3
        time: 0.33333334
        value: {x: -0.18995309, y: -0.32085916, z: -0.80236524, w: 0.4660229}
        inSlope: {x: -0.28914797, y: 0.17652558, z: 0.43326798, w: 0.72317547}
        outSlope: {x: -0.28914797, y: 0.17652558, z: 0.43326798, w: 0.72317547}
        tangentMode: 0
        weightedMode: 0
        inWeight: {x: 0.33333334, y: 0.33333334, z: 0.33333334, w: 0.33333334}
        outWeight: {x: 0.33333334, y: 0.33333334, z: 0.33333334, w: 0.33333334}
      - serializedVersion: 3
        time: 0.43333337
        value: {x: -0.24032678, y: -0.28508908, z: -0.71440023, w: 0.5921145}
        inSlope: {x: -0.48332316, y: 0.40269974, z: 0.9920517, w: 1.2110541}
        outSlope: {x: -0.48332316, y: 0.40269974, z: 0.9920517, w: 1.2110541}
        tangentMode: 0
        weightedMode: 0
        inWeight: {x: 0.33333334, y: 0.33333334, z: 0.33333334, w: 0.33333334}
        outWeight: {x: 0.33333334, y: 0.33333334, z: 0.33333334, w: 0.33333334}
      - serializedVersion: 3
        time: 0.5
        value: {x: -0.2627946, y: -0.26452175, z: -0.6636864, w: 0.64845014}
        inSlope: {x: -0.16710752, y: 0.16261302, z: 0.4011818, w: 0.41920534}
        outSlope: {x: -0.16710752, y: 0.16261302, z: 0.4011818, w: 0.41920534}
        tangentMode: 0
        weightedMode: 0
        inWeight: {x: 0.33333334, y: 0.33333334, z: 0.33333334, w: 0.33333334}
        outWeight: {x: 0.33333334, y: 0.33333334, z: 0.33333334, w: 0.33333334}
      - serializedVersion: 3
        time: 0.53333336
        value: {x: -0.26555535, y: -0.26175007, z: -0.65684664, w: 0.65537757}
        inSlope: {x: -0.08282208, y: 0.0831502, z: 0.2051924, w: 0.20782274}
        outSlope: {x: -0.08282208, y: 0.0831502, z: 0.2051924, w: 0.20782274}
        tangentMode: 0
        weightedMode: 0
        inWeight: {x: 0.33333334, y: 0.33333334, z: 0.33333334, w: 0.33333334}
        outWeight: {x: 0.33333334, y: 0.33333334, z: 0.33333334, w: 0.33333334}
      m_PreInfinity: 2
      m_PostInfinity: 2
      m_RotationOrder: 4
    path: Body/Spine01/Shell/HornL01
  - curve:
      serializedVersion: 2
      m_Curve:
      - serializedVersion: 3
        time: 0
        value: {x: 0.22814049, y: 0.4255921, z: 0.77521104, w: -0.40727293}
        inSlope: {x: -0.09804814, y: 0.05207598, z: 0.092949264, w: 0.17858414}
        outSlope: {x: -0.09804814, y: 0.05207598, z: 0.092949264, w: 0.17858414}
        tangentMode: 0
        weightedMode: 0
        inWeight: {x: 0.33333334, y: 0.33333334, z: 0.33333334, w: 0.33333334}
        outWeight: {x: 0.33333334, y: 0.33333334, z: 0.33333334, w: 0.33333334}
      - serializedVersion: 3
        time: 0.10000001
        value: {x: 0.2013435, y: 0.43890488, z: 0.79894704, w: -0.3584786}
        inSlope: {x: -0.48801428, y: 0.22145212, z: 0.39420158, w: 0.888306}
        outSlope: {x: -0.48801428, y: 0.22145212, z: 0.39420158, w: 0.888306}
        tangentMode: 0
        weightedMode: 0
        inWeight: {x: 0.33333334, y: 0.33333334, z: 0.33333334, w: 0.33333334}
        outWeight: {x: 0.33333334, y: 0.33333334, z: 0.33333334, w: 0.33333334}
      - serializedVersion: 3
        time: 0.23333335
        value: {x: 0.12728463, y: 0.46580613, z: 0.8466099, w: -0.22377457}
        inSlope: {x: -0.409343, y: 0.11441411, z: 0.20128998, w: 0.74402916}
        outSlope: {x: -0.409343, y: 0.11441411, z: 0.20128998, w: 0.74402916}
        tangentMode: 0
        weightedMode: 0
        inWeight: {x: 0.33333334, y: 0.33333334, z: 0.33333334, w: 0.33333334}
        outWeight: {x: 0.33333334, y: 0.33333334, z: 0.33333334, w: 0.33333334}
      - serializedVersion: 3
        time: 0.33333334
        value: {x: 0.11878572, y: 0.46804556, z: 0.8505424, w: -0.20832884}
        inSlope: {x: 0.3570957, y: -0.095049895, z: -0.16696395, w: -0.64899045}
        outSlope: {x: 0.3570957, y: -0.095049895, z: -0.16696395, w: -0.64899045}
        tangentMode: 0
        weightedMode: 0
        inWeight: {x: 0.33333334, y: 0.33333334, z: 0.33333334, w: 0.33333334}
        outWeight: {x: 0.33333334, y: 0.33333334, z: 0.33333334, w: 0.33333334}
      - serializedVersion: 3
        time: 0.43333337
        value: {x: 0.18590772, y: 0.44566244, z: 0.81096786, w: -0.33038533}
        inSlope: {x: 0.71832514, y: -0.296744, z: -0.5272517, w: -1.307087}
        outSlope: {x: 0.71832514, y: -0.296744, z: -0.5272517, w: -1.307087}
        tangentMode: 0
        weightedMode: 0
        inWeight: {x: 0.33333334, y: 0.33333334, z: 0.33333334, w: 0.33333334}
        outWeight: {x: 0.33333334, y: 0.33333334, z: 0.33333334, w: 0.33333334}
      - serializedVersion: 3
        time: 0.5
        value: {x: 0.2228154, y: 0.428404, z: 0.78022957, w: -0.3975741}
        inSlope: {x: 0.30138835, y: -0.15262134, z: -0.272205, w: -0.5488388}
        outSlope: {x: 0.30138835, y: -0.15262134, z: -0.272205, w: -0.5488388}
        tangentMode: 0
        weightedMode: 0
        inWeight: {x: 0.33333334, y: 0.33333334, z: 0.33333334, w: 0.33333334}
        outWeight: {x: 0.33333334, y: 0.33333334, z: 0.33333334, w: 0.33333334}
      - serializedVersion: 3
        time: 0.53333336
        value: {x: 0.22814049, y: 0.4255921, z: 0.77521104, w: -0.40727293}
        inSlope: {x: 0.15975268, y: -0.084357195, z: -0.15055585, w: -0.2909649}
        outSlope: {x: 0.15975268, y: -0.084357195, z: -0.15055585, w: -0.2909649}
        tangentMode: 0
        weightedMode: 0
        inWeight: {x: 0.33333334, y: 0.33333334, z: 0.33333334, w: 0.33333334}
        outWeight: {x: 0.33333334, y: 0.33333334, z: 0.33333334, w: 0.33333334}
      m_PreInfinity: 2
      m_PostInfinity: 2
      m_RotationOrder: 4
    path: Body/Spine01/Shell/HornL03
  - curve:
      serializedVersion: 2
      m_Curve:
      - serializedVersion: 3
        time: 0
        value: {x: -0.42213657, y: -0.23888624, z: -0.43702134, w: 0.7574606}
        inSlope: {x: 0.043971237, y: -0.0771515, z: -0.13843149, w: -0.080435865}
        outSlope: {x: 0.043971237, y: -0.0771515, z: -0.13843149, w: -0.080435865}
        tangentMode: 0
        weightedMode: 0
        inWeight: {x: 0.33333334, y: 0.33333334, z: 0.33333334, w: 0.33333334}
        outWeight: {x: 0.33333334, y: 0.33333334, z: 0.33333334, w: 0.33333334}
      - serializedVersion: 3
        time: 0.10000001
        value: {x: -0.40773514, y: -0.26271272, z: -0.4797606, w: 0.73113877}
        inSlope: {x: 0.3104362, y: -0.4750579, z: -0.8517958, w: -0.56681067}
        outSlope: {x: 0.3104362, y: -0.4750579, z: -0.8517958, w: -0.56681067}
        tangentMode: 0
        weightedMode: 0
        inWeight: {x: 0.33333334, y: 0.33333334, z: 0.33333334, w: 0.33333334}
        outWeight: {x: 0.33333334, y: 0.33333334, z: 0.33333334, w: 0.33333334}
      - serializedVersion: 3
        time: 0.20000002
        value: {x: -0.3627509, y: -0.32199022, z: -0.5859532, w: 0.64914787}
        inSlope: {x: 0.48757678, y: -0.5534465, z: -0.9904537, w: -0.88734615}
        outSlope: {x: 0.48757678, y: -0.5534465, z: -0.9904537, w: -0.88734615}
        tangentMode: 0
        weightedMode: 0
        inWeight: {x: 0.33333334, y: 0.33333334, z: 0.33333334, w: 0.33333334}
        outWeight: {x: 0.33333334, y: 0.33333334, z: 0.33333334, w: 0.33333334}
      - serializedVersion: 3
        time: 0.33333334
        value: {x: -0.338677, y: -0.347223, z: -0.6310824, w: 0.6053669}
        inSlope: {x: -0.35757917, y: 0.3597929, z: 0.6432796, w: 0.6500692}
        outSlope: {x: -0.35757917, y: 0.3597929, z: 0.6432796, w: 0.6500692}
        tangentMode: 0
        weightedMode: 0
        inWeight: {x: 0.33333334, y: 0.33333334, z: 0.33333334, w: 0.33333334}
        outWeight: {x: 0.33333334, y: 0.33333334, z: 0.33333334, w: 0.33333334}
      - serializedVersion: 3
        time: 0.40000004
        value: {x: -0.37733155, y: -0.30477342, z: -0.5551328, w: 0.67569345}
        inSlope: {x: -0.6244806, y: 0.77372587, z: 1.3855304, w: 1.1374779}
        outSlope: {x: -0.6244806, y: 0.77372587, z: 1.3855304, w: 1.1374779}
        tangentMode: 0
        weightedMode: 0
        inWeight: {x: 0.33333334, y: 0.33333334, z: 0.33333334, w: 0.33333334}
        outWeight: {x: 0.33333334, y: 0.33333334, z: 0.33333334, w: 0.33333334}
      - serializedVersion: 3
        time: 0.5
        value: {x: -0.4197013, y: -0.24313933, z: -0.44465244, w: 0.75300616}
        inSlope: {x: -0.15501344, y: 0.26106134, z: 0.4683251, w: 0.28338984}
        outSlope: {x: -0.15501344, y: 0.26106134, z: 0.4683251, w: 0.28338984}
        tangentMode: 0
        weightedMode: 0
        inWeight: {x: 0.33333334, y: 0.33333334, z: 0.33333334, w: 0.33333334}
        outWeight: {x: 0.33333334, y: 0.33333334, z: 0.33333334, w: 0.33333334}
      - serializedVersion: 3
        time: 0.53333336
        value: {x: -0.42213657, y: -0.23888624, z: -0.43702134, w: 0.7574606}
        inSlope: {x: -0.07305795, y: 0.12759258, z: 0.2289326, w: 0.13363291}
        outSlope: {x: -0.07305795, y: 0.12759258, z: 0.2289326, w: 0.13363291}
        tangentMode: 0
        weightedMode: 0
        inWeight: {x: 0.33333334, y: 0.33333334, z: 0.33333334, w: 0.33333334}
        outWeight: {x: 0.33333334, y: 0.33333334, z: 0.33333334, w: 0.33333334}
      m_PreInfinity: 2
      m_PostInfinity: 2
      m_RotationOrder: 4
    path: Body/Spine01/Shell/HornL02
  - curve:
      serializedVersion: 2
      m_Curve:
      - serializedVersion: 3
        time: 0
        value: {x: -0.41800854, y: -0.41738293, z: -0.57486486, w: 0.56620735}
        inSlope: {x: 0.09030371, y: -0.08979141, z: -0.12162029, w: -0.12437045}
        outSlope: {x: 0.09030371, y: -0.08979141, z: -0.12162029, w: -0.12437045}
        tangentMode: 0
        weightedMode: 0
        inWeight: {x: 0.33333334, y: 0.33333334, z: 0.33333334, w: 0.33333334}
        outWeight: {x: 0.33333334, y: 0.33333334, z: 0.33333334, w: 0.33333334}
      - serializedVersion: 3
        time: 0.10000001
        value: {x: -0.3916833, y: -0.44218078, z: -0.60843664, w: 0.5299672}
        inSlope: {x: 0.51147044, y: -0.44844788, z: -0.606713, w: -0.7037258}
        outSlope: {x: 0.51147044, y: -0.44844788, z: -0.606713, w: -0.7037258}
        tangentMode: 0
        weightedMode: 0
        inWeight: {x: 0.33333334, y: 0.33333334, z: 0.33333334, w: 0.33333334}
        outWeight: {x: 0.33333334, y: 0.33333334, z: 0.33333334, w: 0.33333334}
      - serializedVersion: 3
        time: 0.20000002
        value: {x: -0.32607016, y: -0.49256256, z: -0.6765062, w: 0.4397723}
        inSlope: {x: 0.6494977, y: -0.43348247, z: -0.58470094, w: -0.8920883}
        outSlope: {x: 0.6494977, y: -0.43348247, z: -0.58470094, w: -0.8920883}
        tangentMode: 0
        weightedMode: 0
        inWeight: {x: 0.33333334, y: 0.33333334, z: 0.33333334, w: 0.33333334}
        outWeight: {x: 0.33333334, y: 0.33333334, z: 0.33333334, w: 0.33333334}
      - serializedVersion: 3
        time: 0.33333334
        value: {x: -0.2952164, y: -0.51165116, z: -0.70222807, w: 0.3974117}
        inSlope: {x: -0.45012748, y: 0.267773, z: 0.3606257, w: 0.61788}
        outSlope: {x: -0.45012748, y: 0.267773, z: 0.3606257, w: 0.61788}
        tangentMode: 0
        weightedMode: 0
        inWeight: {x: 0.33333334, y: 0.33333334, z: 0.33333334, w: 0.33333334}
        outWeight: {x: 0.33333334, y: 0.33333334, z: 0.33333334, w: 0.33333334}
      - serializedVersion: 3
        time: 0.43333337
        value: {x: -0.37515146, y: -0.4562905, z: -0.6275208, w: 0.50722575}
        inSlope: {x: -0.7905172, y: 0.64330643, z: 0.8696974, w: 1.0870998}
        outSlope: {x: -0.7905172, y: 0.64330643, z: 0.8696974, w: 1.0870998}
        tangentMode: 0
        weightedMode: 0
        inWeight: {x: 0.33333334, y: 0.33333334, z: 0.33333334, w: 0.33333334}
        outWeight: {x: 0.33333334, y: 0.33333334, z: 0.33333334, w: 0.33333334}
      - serializedVersion: 3
        time: 0.5
        value: {x: -0.41307092, y: -0.42227012, z: -0.58148414, w: 0.55940735}
        inSlope: {x: -0.29136136, y: 0.27880996, z: 0.37751037, w: 0.40114602}
        outSlope: {x: -0.29136136, y: 0.27880996, z: 0.37751037, w: 0.40114602}
        tangentMode: 0
        weightedMode: 0
        inWeight: {x: 0.33333334, y: 0.33333334, z: 0.33333334, w: 0.33333334}
        outWeight: {x: 0.33333334, y: 0.33333334, z: 0.33333334, w: 0.33333334}
      - serializedVersion: 3
        time: 0.53333336
        value: {x: -0.41800854, y: -0.41738293, z: -0.57486486, w: 0.56620735}
        inSlope: {x: -0.14812845, y: 0.14661568, z: 0.19857807, w: 0.20399971}
        outSlope: {x: -0.14812845, y: 0.14661568, z: 0.19857807, w: 0.20399971}
        tangentMode: 0
        weightedMode: 0
        inWeight: {x: 0.33333334, y: 0.33333334, z: 0.33333334, w: 0.33333334}
        outWeight: {x: 0.33333334, y: 0.33333334, z: 0.33333334, w: 0.33333334}
      m_PreInfinity: 2
      m_PostInfinity: 2
      m_RotationOrder: 4
    path: Body/Spine01/Shell/HornL04
  - curve:
      serializedVersion: 2
      m_Curve:
      - serializedVersion: 3
        time: 0
        value: {x: 0.2655548, y: 0.2617494, z: -0.6568468, w: 0.65537786}
        inSlope: {x: -0.05026817, y: 0.050677653, z: -0.12506068, w: -0.12614071}
        outSlope: {x: -0.05026817, y: 0.050677653, z: -0.12506068, w: -0.12614071}
        tangentMode: 0
        weightedMode: 0
        inWeight: {x: 0.33333334, y: 0.33333334, z: 0.33333334, w: 0.33333334}
        outWeight: {x: 0.33333334, y: 0.33333334, z: 0.33333334, w: 0.33333334}
      - serializedVersion: 3
        time: 0.10000001
        value: {x: 0.25031933, y: 0.27635545, z: -0.69287646, w: 0.61716294}
        inSlope: {x: -0.30604497, y: 0.27422413, z: -0.6760329, w: -0.76725125}
        outSlope: {x: -0.30604497, y: 0.27422413, z: -0.6760329, w: -0.76725125}
        tangentMode: 0
        weightedMode: 0
        inWeight: {x: 0.33333334, y: 0.33333334, z: 0.33333334, w: 0.33333334}
        outWeight: {x: 0.33333334, y: 0.33333334, z: 0.33333334, w: 0.33333334}
      - serializedVersion: 3
        time: 0.20000002
        value: {x: 0.20969088, y: 0.30832097, z: -0.7715769, w: 0.51539993}
        inSlope: {x: -0.4117304, y: 0.2821715, z: -0.69361466, w: -1.0304053}
        outSlope: {x: -0.4117304, y: 0.2821715, z: -0.69361466, w: -1.0304053}
        tangentMode: 0
        weightedMode: 0
        inWeight: {x: 0.33333334, y: 0.33333334, z: 0.33333334, w: 0.33333334}
        outWeight: {x: 0.33333334, y: 0.33333334, z: 0.33333334, w: 0.33333334}
      - serializedVersion: 3
        time: 0.33333334
        value: {x: 0.18995267, y: 0.32085836, z: -0.8023654, w: 0.46602324}
        inSlope: {x: 0.28914663, y: -0.17652513, z: 0.43326887, w: 0.7231768}
        outSlope: {x: 0.28914663, y: -0.17652513, z: 0.43326887, w: 0.7231768}
        tangentMode: 0
        weightedMode: 0
        inWeight: {x: 0.33333334, y: 0.33333334, z: 0.33333334, w: 0.33333334}
        outWeight: {x: 0.33333334, y: 0.33333334, z: 0.33333334, w: 0.33333334}
      - serializedVersion: 3
        time: 0.43333337
        value: {x: 0.24032626, y: 0.28508836, z: -0.7144004, w: 0.59211487}
        inSlope: {x: 0.48332226, y: -0.4026984, z: 0.9920527, w: 1.211055}
        outSlope: {x: 0.48332226, y: -0.4026984, z: 0.9920527, w: 1.211055}
        tangentMode: 0
        weightedMode: 0
        inWeight: {x: 0.33333334, y: 0.33333334, z: 0.33333334, w: 0.33333334}
        outWeight: {x: 0.33333334, y: 0.33333334, z: 0.33333334, w: 0.33333334}
      - serializedVersion: 3
        time: 0.5
        value: {x: 0.26279408, y: 0.2645211, z: -0.6636866, w: 0.64845055}
        inSlope: {x: 0.16710708, y: -0.16261347, z: 0.4011809, w: 0.41920355}
        outSlope: {x: 0.16710708, y: -0.16261347, z: 0.4011809, w: 0.41920355}
        tangentMode: 0
        weightedMode: 0
        inWeight: {x: 0.33333334, y: 0.33333334, z: 0.33333334, w: 0.33333334}
        outWeight: {x: 0.33333334, y: 0.33333334, z: 0.33333334, w: 0.33333334}
      - serializedVersion: 3
        time: 0.53333336
        value: {x: 0.2655548, y: 0.2617494, z: -0.6568468, w: 0.65537786}
        inSlope: {x: 0.08282118, y: -0.083151095, z: 0.2051924, w: 0.20781916}
        outSlope: {x: 0.08282118, y: -0.083151095, z: 0.2051924, w: 0.20781916}
        tangentMode: 0
        weightedMode: 0
        inWeight: {x: 0.33333334, y: 0.33333334, z: 0.33333334, w: 0.33333334}
        outWeight: {x: 0.33333334, y: 0.33333334, z: 0.33333334, w: 0.33333334}
      m_PreInfinity: 2
      m_PostInfinity: 2
      m_RotationOrder: 4
    path: Body/Spine01/Shell/HornR01
  - curve:
      serializedVersion: 2
      m_Curve:
      - serializedVersion: 3
        time: 0
        value: {x: 0.42213666, y: 0.23888575, z: -0.43702057, w: 0.7574611}
        inSlope: {x: -0.043971237, y: 0.07715195, z: -0.13843238, w: -0.08043408}
        outSlope: {x: -0.043971237, y: 0.07715195, z: -0.13843238, w: -0.08043408}
        tangentMode: 0
        weightedMode: 0
        inWeight: {x: 0.33333334, y: 0.33333334, z: 0.33333334, w: 0.33333334}
        outWeight: {x: 0.33333334, y: 0.33333334, z: 0.33333334, w: 0.33333334}
      - serializedVersion: 3
        time: 0.10000001
        value: {x: 0.40773526, y: 0.26271224, z: -0.47975987, w: 0.7311393}
        inSlope: {x: -0.3104353, y: 0.4750581, z: -0.8517958, w: -0.5668098}
        outSlope: {x: -0.3104353, y: 0.4750581, z: -0.8517958, w: -0.5668098}
        tangentMode: 0
        weightedMode: 0
        inWeight: {x: 0.33333334, y: 0.33333334, z: 0.33333334, w: 0.33333334}
        outWeight: {x: 0.33333334, y: 0.33333334, z: 0.33333334, w: 0.33333334}
      - serializedVersion: 3
        time: 0.20000002
        value: {x: 0.3627511, y: 0.32198977, z: -0.5859526, w: 0.6491485}
        inSlope: {x: -0.48757637, y: 0.55344605, z: -0.9904547, w: -0.88734615}
        outSlope: {x: -0.48757637, y: 0.55344605, z: -0.9904547, w: -0.88734615}
        tangentMode: 0
        weightedMode: 0
        inWeight: {x: 0.33333334, y: 0.33333334, z: 0.33333334, w: 0.33333334}
        outWeight: {x: 0.33333334, y: 0.33333334, z: 0.33333334, w: 0.33333334}
      - serializedVersion: 3
        time: 0.33333334
        value: {x: 0.33867723, y: 0.34722254, z: -0.6310819, w: 0.60536754}
        inSlope: {x: 0.35757872, y: -0.35979334, z: 0.6432805, w: 0.6500683}
        outSlope: {x: 0.35757872, y: -0.35979334, z: 0.6432805, w: 0.6500683}
        tangentMode: 0
        weightedMode: 0
        inWeight: {x: 0.33333334, y: 0.33333334, z: 0.33333334, w: 0.33333334}
        outWeight: {x: 0.33333334, y: 0.33333334, z: 0.33333334, w: 0.33333334}
      - serializedVersion: 3
        time: 0.40000004
        value: {x: 0.3773318, y: 0.30477294, z: -0.5551322, w: 0.6756941}
        inSlope: {x: 0.6244801, y: -0.77372587, z: 1.3855321, w: 1.1374762}
        outSlope: {x: 0.6244801, y: -0.77372587, z: 1.3855321, w: 1.1374762}
        tangentMode: 0
        weightedMode: 0
        inWeight: {x: 0.33333334, y: 0.33333334, z: 0.33333334, w: 0.33333334}
        outWeight: {x: 0.33333334, y: 0.33333334, z: 0.33333334, w: 0.33333334}
      - serializedVersion: 3
        time: 0.5
        value: {x: 0.41970143, y: 0.24313882, z: -0.4446517, w: 0.7530067}
        inSlope: {x: 0.15501255, y: -0.2610611, z: 0.46832645, w: 0.28338894}
        outSlope: {x: 0.15501255, y: -0.2610611, z: 0.46832645, w: 0.28338894}
        tangentMode: 0
        weightedMode: 0
        inWeight: {x: 0.33333334, y: 0.33333334, z: 0.33333334, w: 0.33333334}
        outWeight: {x: 0.33333334, y: 0.33333334, z: 0.33333334, w: 0.33333334}
      - serializedVersion: 3
        time: 0.53333336
        value: {x: 0.42213666, y: 0.23888575, z: -0.43702057, w: 0.7574611}
        inSlope: {x: 0.073057055, y: -0.12759213, z: 0.2289335, w: 0.13363113}
        outSlope: {x: 0.073057055, y: -0.12759213, z: 0.2289335, w: 0.13363113}
        tangentMode: 0
        weightedMode: 0
        inWeight: {x: 0.33333334, y: 0.33333334, z: 0.33333334, w: 0.33333334}
        outWeight: {x: 0.33333334, y: 0.33333334, z: 0.33333334, w: 0.33333334}
      m_PreInfinity: 2
      m_PostInfinity: 2
      m_RotationOrder: 4
    path: Body/Spine01/Shell/HornR02
  - curve:
      serializedVersion: 2
      m_Curve:
      - serializedVersion: 3
        time: 0
        value: {x: -0.22814058, y: -0.42559302, z: 0.7752108, w: -0.4072722}
        inSlope: {x: 0.09804725, y: -0.052076872, z: 0.09295105, w: 0.17858414}
        outSlope: {x: 0.09804725, y: -0.052076872, z: 0.09295105, w: 0.17858414}
        tangentMode: 0
        weightedMode: 0
        inWeight: {x: 0.33333334, y: 0.33333334, z: 0.33333334, w: 0.33333334}
        outWeight: {x: 0.33333334, y: 0.33333334, z: 0.33333334, w: 0.33333334}
      - serializedVersion: 3
        time: 0.10000001
        value: {x: -0.20134361, y: -0.4389058, z: 0.79894686, w: -0.35847786}
        inSlope: {x: 0.48801583, y: -0.22145256, z: 0.3941998, w: 0.8883051}
        outSlope: {x: 0.48801583, y: -0.22145256, z: 0.3941998, w: 0.8883051}
        tangentMode: 0
        weightedMode: 0
        inWeight: {x: 0.33333334, y: 0.33333334, z: 0.33333334, w: 0.33333334}
        outWeight: {x: 0.33333334, y: 0.33333334, z: 0.33333334, w: 0.33333334}
      - serializedVersion: 3
        time: 0.23333335
        value: {x: -0.12728454, y: -0.46580705, z: 0.84660953, w: -0.22377382}
        inSlope: {x: 0.40934503, y: -0.11441411, z: 0.2012882, w: 0.74402714}
        outSlope: {x: 0.40934503, y: -0.11441411, z: 0.2012882, w: 0.74402714}
        tangentMode: 0
        weightedMode: 0
        inWeight: {x: 0.33333334, y: 0.33333334, z: 0.33333334, w: 0.33333334}
        outWeight: {x: 0.33333334, y: 0.33333334, z: 0.33333334, w: 0.33333334}
      - serializedVersion: 3
        time: 0.33333334
        value: {x: -0.11878559, y: -0.46804652, z: 0.85054207, w: -0.20832819}
        inSlope: {x: -0.3570974, y: 0.09505034, z: -0.16696306, w: -0.64898825}
        outSlope: {x: -0.3570974, y: 0.09505034, z: -0.16696306, w: -0.64898825}
        tangentMode: 0
        weightedMode: 0
        inWeight: {x: 0.33333334, y: 0.33333334, z: 0.33333334, w: 0.33333334}
        outWeight: {x: 0.33333334, y: 0.33333334, z: 0.33333334, w: 0.33333334}
      - serializedVersion: 3
        time: 0.43333337
        value: {x: -0.18590781, y: -0.4456634, z: 0.8109677, w: -0.33038455}
        inSlope: {x: -0.71832716, y: 0.29674444, z: -0.5272508, w: -1.3070853}
        outSlope: {x: -0.71832716, y: 0.29674444, z: -0.5272508, w: -1.3070853}
        tangentMode: 0
        weightedMode: 0
        inWeight: {x: 0.33333334, y: 0.33333334, z: 0.33333334, w: 0.33333334}
        outWeight: {x: 0.33333334, y: 0.33333334, z: 0.33333334, w: 0.33333334}
      - serializedVersion: 3
        time: 0.5
        value: {x: -0.2228155, y: -0.42840496, z: 0.7802294, w: -0.39757332}
        inSlope: {x: -0.3013879, y: 0.15262134, z: -0.2722059, w: -0.54884017}
        outSlope: {x: -0.3013879, y: 0.15262134, z: -0.2722059, w: -0.54884017}
        tangentMode: 0
        weightedMode: 0
        inWeight: {x: 0.33333334, y: 0.33333334, z: 0.33333334, w: 0.33333334}
        outWeight: {x: 0.33333334, y: 0.33333334, z: 0.33333334, w: 0.33333334}
      - serializedVersion: 3
        time: 0.53333336
        value: {x: -0.22814058, y: -0.42559302, z: 0.7752108, w: -0.4072722}
        inSlope: {x: -0.15975223, y: 0.08435809, z: -0.15055764, w: -0.2909658}
        outSlope: {x: -0.15975223, y: 0.08435809, z: -0.15055764, w: -0.2909658}
        tangentMode: 0
        weightedMode: 0
        inWeight: {x: 0.33333334, y: 0.33333334, z: 0.33333334, w: 0.33333334}
        outWeight: {x: 0.33333334, y: 0.33333334, z: 0.33333334, w: 0.33333334}
      m_PreInfinity: 2
      m_PostInfinity: 2
      m_RotationOrder: 4
    path: Body/Spine01/Shell/HornR03
  - curve:
      serializedVersion: 2
      m_Curve:
      - serializedVersion: 3
        time: 0
        value: {x: 0.41800904, y: 0.4173832, z: -0.5748644, w: 0.56620723}
        inSlope: {x: -0.09030282, y: 0.0897932, z: -0.12162029, w: -0.12436866}
        outSlope: {x: -0.09030282, y: 0.0897932, z: -0.12162029, w: -0.12436866}
        tangentMode: 0
        weightedMode: 0
        inWeight: {x: 0.33333334, y: 0.33333334, z: 0.33333334, w: 0.33333334}
        outWeight: {x: 0.33333334, y: 0.33333334, z: 0.33333334, w: 0.33333334}
      - serializedVersion: 3
        time: 0.10000001
        value: {x: 0.39168382, y: 0.44218108, z: -0.60843617, w: 0.52996707}
        inSlope: {x: -0.51147044, y: 0.44844878, z: -0.6067121, w: -0.7037258}
        outSlope: {x: -0.51147044, y: 0.44844878, z: -0.6067121, w: -0.7037258}
        tangentMode: 0
        weightedMode: 0
        inWeight: {x: 0.33333334, y: 0.33333334, z: 0.33333334, w: 0.33333334}
        outWeight: {x: 0.33333334, y: 0.33333334, z: 0.33333334, w: 0.33333334}
      - serializedVersion: 3
        time: 0.20000002
        value: {x: 0.32607067, y: 0.49256295, z: -0.6765058, w: 0.43977228}
        inSlope: {x: -0.6494981, y: 0.43348336, z: -0.5847, w: -0.89208734}
        outSlope: {x: -0.6494981, y: 0.43348336, z: -0.5847, w: -0.89208734}
        tangentMode: 0
        weightedMode: 0
        inWeight: {x: 0.33333334, y: 0.33333334, z: 0.33333334, w: 0.33333334}
        outWeight: {x: 0.33333334, y: 0.33333334, z: 0.33333334, w: 0.33333334}
      - serializedVersion: 3
        time: 0.33333334
        value: {x: 0.2952169, y: 0.5116516, z: -0.70222765, w: 0.39741167}
        inSlope: {x: 0.45012838, y: -0.267773, z: 0.3606257, w: 0.6178786}
        outSlope: {x: 0.45012838, y: -0.267773, z: 0.3606257, w: 0.6178786}
        tangentMode: 0
        weightedMode: 0
        inWeight: {x: 0.33333334, y: 0.33333334, z: 0.33333334, w: 0.33333334}
        outWeight: {x: 0.33333334, y: 0.33333334, z: 0.33333334, w: 0.33333334}
      - serializedVersion: 3
        time: 0.43333337
        value: {x: 0.37515193, y: 0.4562908, z: -0.6275204, w: 0.5072257}
        inSlope: {x: 0.7905172, y: -0.6433078, z: 0.8696974, w: 1.0870985}
        outSlope: {x: 0.7905172, y: -0.6433078, z: 0.8696974, w: 1.0870985}
        tangentMode: 0
        weightedMode: 0
        inWeight: {x: 0.33333334, y: 0.33333334, z: 0.33333334, w: 0.33333334}
        outWeight: {x: 0.33333334, y: 0.33333334, z: 0.33333334, w: 0.33333334}
      - serializedVersion: 3
        time: 0.5
        value: {x: 0.41307142, y: 0.42227042, z: -0.58148366, w: 0.55940723}
        inSlope: {x: 0.2913618, y: -0.27881038, z: 0.37751037, w: 0.40114513}
        outSlope: {x: 0.2913618, y: -0.27881038, z: 0.37751037, w: 0.40114513}
        tangentMode: 0
        weightedMode: 0
        inWeight: {x: 0.33333334, y: 0.33333334, z: 0.33333334, w: 0.33333334}
        outWeight: {x: 0.33333334, y: 0.33333334, z: 0.33333334, w: 0.33333334}
      - serializedVersion: 3
        time: 0.53333336
        value: {x: 0.41800904, y: 0.4173832, z: -0.5748644, w: 0.56620723}
        inSlope: {x: 0.14812845, y: -0.14661658, z: 0.19857807, w: 0.20399971}
        outSlope: {x: 0.14812845, y: -0.14661658, z: 0.19857807, w: 0.20399971}
        tangentMode: 0
        weightedMode: 0
        inWeight: {x: 0.33333334, y: 0.33333334, z: 0.33333334, w: 0.33333334}
        outWeight: {x: 0.33333334, y: 0.33333334, z: 0.33333334, w: 0.33333334}
      m_PreInfinity: 2
      m_PostInfinity: 2
      m_RotationOrder: 4
    path: Body/Spine01/Shell/HornR04
  m_CompressedRotationCurves: []
  m_EulerCurves: []
  m_PositionCurves:
  - curve:
      serializedVersion: 2
      m_Curve:
      - serializedVersion: 3
        time: 0
        value: {x: -0, y: 0.13463865, z: -0.5692238}
        inSlope: {x: -0, y: 1.1102229e-15, z: 0.14866537}
        outSlope: {x: -0, y: 1.1102229e-15, z: 0.14866537}
        tangentMode: 0
        weightedMode: 0
        inWeight: {x: 0.33333334, y: 0.33333334, z: 0.33333334}
        outWeight: {x: 0.33333334, y: 0.33333334, z: 0.33333334}
      - serializedVersion: 3
        time: 0.1
        value: {x: -0, y: 0.13463865, z: -0.5327331}
        inSlope: {x: -0, y: 4.758099e-16, z: 0.5946617}
        outSlope: {x: -0, y: 1.1102228e-15, z: 0.5946678}
        tangentMode: 0
        weightedMode: 0
        inWeight: {x: 0.33333334, y: 0.33333334, z: 0.33333334}
        outWeight: {x: 0.33333334, y: 0.33333334, z: 0.33333334}
      - serializedVersion: 3
        time: 0.26666668
        value: {x: -0, y: 0.13463865, z: -0.45389494}
        inSlope: {x: -0, y: 4.758097e-16, z: 0.000004123142}
        outSlope: {x: -0, y: 1.110223e-15, z: -0.0000041231438}
        tangentMode: 0
        weightedMode: 0
        inWeight: {x: 0.33333334, y: 0.33333334, z: 0.33333334}
        outWeight: {x: 0.33333334, y: 0.33333334, z: 0.33333334}
      - serializedVersion: 3
        time: 0.5
        value: {x: -0, y: 0.13463865, z: -0.5642683}
        inSlope: {x: -0, y: 4.758099e-16, z: -0.2702999}
        outSlope: {x: -0, y: 1.1102221e-15, z: -0.2702954}
        tangentMode: 0
        weightedMode: 0
        inWeight: {x: 0.33333334, y: 0.33333334, z: 0.33333334}
        outWeight: {x: 0.33333334, y: 0.33333334, z: 0.33333334}
      - serializedVersion: 3
        time: 0.53333336
        value: {x: -0, y: 0.13463865, z: -0.5692238}
        inSlope: {x: -0, y: 4.758095e-16, z: -0.14865571}
        outSlope: {x: -0, y: 4.758095e-16, z: -0.14865571}
        tangentMode: 0
        weightedMode: 0
        inWeight: {x: 0.33333334, y: 0.33333334, z: 0.33333334}
        outWeight: {x: 0.33333334, y: 0.33333334, z: 0.33333334}
      m_PreInfinity: 2
      m_PostInfinity: 2
      m_RotationOrder: 4
    path: Body
  - curve:
      serializedVersion: 2
      m_Curve:
      - serializedVersion: 3
        time: 0
        value: {x: -0.31336257, y: 1.0658141e-16, z: 1.3916094e-16}
        inSlope: {x: -0.111559026, y: 0.030931255, z: 0.019652337}
        outSlope: {x: -0.111559026, y: 0.030931255, z: 0.019652337}
        tangentMode: 0
        weightedMode: 0
        inWeight: {x: 0.33333334, y: 0.33333334, z: 0.33333334}
        outWeight: {x: 0.33333334, y: 0.33333334, z: 0.33333334}
      - serializedVersion: 3
        time: 0.033333335
        value: {x: -0.31708115, y: 0.001031042, z: 0.0006550779}
        inSlope: {x: -0.20526706, y: 0.056913517, z: 0.0361603}
        outSlope: {x: -0.2052674, y: 0.056913503, z: 0.03616029}
        tangentMode: 0
        weightedMode: 0
        inWeight: {x: 0.33333334, y: 0.33333334, z: 0.33333334}
        outWeight: {x: 0.33333334, y: 0.33333334, z: 0.33333334}
      - serializedVersion: 3
        time: 0.06666667
        value: {x: -0.32704693, y: 0.0037942347, z: 0.0024106868}
        inSlope: {x: -0.36591247, y: 0.10145451, z: 0.06445963}
        outSlope: {x: -0.36591002, y: 0.1014545, z: 0.06445967}
        tangentMode: 0
        weightedMode: 0
        inWeight: {x: 0.33333334, y: 0.33333334, z: 0.33333334}
        outWeight: {x: 0.33333334, y: 0.33333334, z: 0.33333334}
      - serializedVersion: 3
        time: 0.2
        value: {x: -0.39368382, y: 0.022270508, z: 0.014149683}
        inSlope: {x: -0.47300136, y: 0.13114864, z: 0.08332604}
        outSlope: {x: -0.47300902, y: 0.13114876, z: 0.08332598}
        tangentMode: 0
        weightedMode: 0
        inWeight: {x: 0.33333334, y: 0.33333334, z: 0.33333334}
        outWeight: {x: 0.33333334, y: 0.33333334, z: 0.33333334}
      - serializedVersion: 3
        time: 0.33333334
        value: {x: -0.41578975, y: 0.028399767, z: 0.018043939}
        inSlope: {x: 0.32245615, y: -0.08940625, z: -0.056804962}
        outSlope: {x: 0.3224631, y: -0.08940668, z: -0.056804996}
        tangentMode: 0
        weightedMode: 0
        inWeight: {x: 0.33333334, y: 0.33333334, z: 0.33333334}
        outWeight: {x: 0.33333334, y: 0.33333334, z: 0.33333334}
      - serializedVersion: 3
        time: 0.43333334
        value: {x: -0.35604057, y: 0.011833239, z: 0.0075183106}
        inSlope: {x: 0.6638757, y: -0.18407209, z: -0.11695104}
        outSlope: {x: 0.66387826, y: -0.18407208, z: -0.11695111}
        tangentMode: 0
        weightedMode: 0
        inWeight: {x: 0.33333334, y: 0.33333334, z: 0.33333334}
        outWeight: {x: 0.33333334, y: 0.33333334, z: 0.33333334}
      - serializedVersion: 3
        time: 0.46666667
        value: {x: -0.33485964, y: 0.005960448, z: 0.0037870018}
        inSlope: {x: 0.55006945, y: -0.15251687, z: -0.09690237}
        outSlope: {x: 0.5500717, y: -0.15251668, z: -0.09690227}
        tangentMode: 0
        weightedMode: 0
        inWeight: {x: 0.33333334, y: 0.33333334, z: 0.33333334}
        outWeight: {x: 0.33333334, y: 0.33333334, z: 0.33333334}
      - serializedVersion: 3
        time: 0.5
        value: {x: -0.3193691, y: 0.0016654208, z: 0.0010581338}
        inSlope: {x: 0.3224569, y: -0.08940626, z: -0.056804758}
        outSlope: {x: 0.3224551, y: -0.08940632, z: -0.056804776}
        tangentMode: 0
        weightedMode: 0
        inWeight: {x: 0.33333334, y: 0.33333334, z: 0.33333334}
        outWeight: {x: 0.33333334, y: 0.33333334, z: 0.33333334}
      - serializedVersion: 3
        time: 0.53333336
        value: {x: -0.31336257, y: 1.0658141e-16, z: 1.3916094e-16}
        inSlope: {x: 0.18019699, y: -0.04996217, z: -0.03174373}
        outSlope: {x: 0.18019699, y: -0.04996217, z: -0.03174373}
        tangentMode: 0
        weightedMode: 0
        inWeight: {x: 0.33333334, y: 0.33333334, z: 0.33333334}
        outWeight: {x: 0.33333334, y: 0.33333334, z: 0.33333334}
      m_PreInfinity: 2
      m_PostInfinity: 2
      m_RotationOrder: 4
    path: Body/Spine01
  - curve:
      serializedVersion: 2
      m_Curve:
      - serializedVersion: 3
        time: 0
        value: {x: -0.33054718, y: -3.5527136e-17, z: 7.552034e-17}
        inSlope: {x: -0.06541387, y: -0.0038965642, z: -0.01604574}
        outSlope: {x: -0.06541387, y: -0.0038965642, z: -0.01604574}
        tangentMode: 0
        weightedMode: 0
        inWeight: {x: 0.33333334, y: 0.33333334, z: 0.33333334}
        outWeight: {x: 0.33333334, y: 0.33333334, z: 0.33333334}
      - serializedVersion: 3
        time: 0.033333335
        value: {x: -0.33272728, y: -0.00012988549, z: -0.00053485803}
        inSlope: {x: -0.12146812, y: -0.007236477, z: -0.029799232}
        outSlope: {x: -0.121466465, y: -0.0072364775, z: -0.02979924}
        tangentMode: 0
        weightedMode: 0
        inWeight: {x: 0.33333334, y: 0.33333334, z: 0.33333334}
        outWeight: {x: 0.33333334, y: 0.33333334, z: 0.33333334}
      - serializedVersion: 3
        time: 0.06666667
        value: {x: -0.33864462, y: -0.00048243182, z: -0.0019866156}
        inSlope: {x: -0.21956956, y: -0.013081321, z: -0.05386785}
        outSlope: {x: -0.21956076, y: -0.013081314, z: -0.05386779}
        tangentMode: 0
        weightedMode: 0
        inWeight: {x: 0.33333334, y: 0.33333334, z: 0.33333334}
        outWeight: {x: 0.33333334, y: 0.33333334, z: 0.33333334}
      - serializedVersion: 3
        time: 0.23333333
        value: {x: -0.39158946, y: -0.0036367937, z: -0.014976025}
        inSlope: {x: -0.28964818, y: -0.017256329, z: -0.07106006}
        outSlope: {x: -0.28964207, y: -0.01725627, z: -0.071059436}
        tangentMode: 0
        weightedMode: 0
        inWeight: {x: 0.33333334, y: 0.33333334, z: 0.33333334}
        outWeight: {x: 0.33333334, y: 0.33333334, z: 0.33333334}
      - serializedVersion: 3
        time: 0.3
        value: {x: -0.40622714, y: -0.0045088823, z: -0.018567214}
        inSlope: {x: -0.12146648, y: -0.007236409, z: -0.02979893}
        outSlope: {x: -0.121457234, y: -0.0072364965, z: -0.029799318}
        tangentMode: 0
        weightedMode: 0
        inWeight: {x: 0.33333334, y: 0.33333334, z: 0.33333334}
        outWeight: {x: 0.33333334, y: 0.33333334, z: 0.33333334}
      - serializedVersion: 3
        time: 0.33333334
        value: {x: -0.40840724, y: -0.0046387673, z: -0.019102072}
        inSlope: {x: 0.053811762, y: 0.0032058968, z: 0.0132016875}
        outSlope: {x: 0.05380868, y: 0.003205884, z: 0.0132014975}
        tangentMode: 0
        weightedMode: 0
        inWeight: {x: 0.33333334, y: 0.33333334, z: 0.33333334}
        outWeight: {x: 0.33333334, y: 0.33333334, z: 0.33333334}
      - serializedVersion: 3
        time: 0.36666667
        value: {x: -0.40263984, y: -0.0042951554, z: -0.017687105}
        inSlope: {x: 0.30278853, y: 0.018039608, z: 0.0742857}
        outSlope: {x: 0.3027947, y: 0.018039536, z: 0.07428554}
        tangentMode: 0
        weightedMode: 0
        inWeight: {x: 0.33333334, y: 0.33333334, z: 0.33333334}
        outWeight: {x: 0.33333334, y: 0.33333334, z: 0.33333334}
      - serializedVersion: 3
        time: 0.43333334
        value: {x: -0.3694772, y: -0.0023193844, z: -0.009551038}
        inSlope: {x: 0.56230897, y: 0.03350212, z: 0.137959}
        outSlope: {x: 0.56230897, y: 0.033502083, z: 0.13795906}
        tangentMode: 0
        weightedMode: 0
        inWeight: {x: 0.33333334, y: 0.33333334, z: 0.33333334}
        outWeight: {x: 0.33333334, y: 0.33333334, z: 0.33333334}
      - serializedVersion: 3
        time: 0.46666667
        value: {x: -0.35073313, y: -0.001202644, z: -0.0049523916}
        inSlope: {x: 0.4974318, y: 0.029636435, z: 0.12204066}
        outSlope: {x: 0.49743828, y: 0.02963646, z: 0.122040555}
        tangentMode: 0
        weightedMode: 0
        inWeight: {x: 0.33333334, y: 0.33333334, z: 0.33333334}
        outWeight: {x: 0.33333334, y: 0.33333334, z: 0.33333334}
      - serializedVersion: 3
        time: 0.5
        value: {x: -0.33631462, y: -0.00034361286, z: -0.0014149703}
        inSlope: {x: 0.30278516, y: 0.018039577, z: 0.074285544}
        outSlope: {x: 0.30279213, y: 0.018039579, z: 0.07428552}
        tangentMode: 0
        weightedMode: 0
        inWeight: {x: 0.33333334, y: 0.33333334, z: 0.33333334}
        outWeight: {x: 0.33333334, y: 0.33333334, z: 0.33333334}
      - serializedVersion: 3
        time: 0.53333336
        value: {x: -0.33054718, y: -3.5527136e-17, z: 7.552034e-17}
        inSlope: {x: 0.17302169, y: 0.010308293, z: 0.042448714}
        outSlope: {x: 0.17302169, y: 0.010308293, z: 0.042448714}
        tangentMode: 0
        weightedMode: 0
        inWeight: {x: 0.33333334, y: 0.33333334, z: 0.33333334}
        outWeight: {x: 0.33333334, y: 0.33333334, z: 0.33333334}
      m_PreInfinity: 2
      m_PostInfinity: 2
      m_RotationOrder: 4
    path: Body/Spine01/Spine02
  - curve:
      serializedVersion: 2
      m_Curve:
      - serializedVersion: 3
        time: 0
        value: {x: -0.2659768, y: 1.9539925e-16, z: 0.000000001408367}
        inSlope: {x: -0.029855695, y: -0.006452338, z: 0.016016461}
        outSlope: {x: -0.029855695, y: -0.006452338, z: 0.016016461}
        tangentMode: 0
        weightedMode: 0
        inWeight: {x: 0.33333334, y: 0.33333334, z: 0.33333334}
        outWeight: {x: 0.33333334, y: 0.33333334, z: 0.33333334}
      - serializedVersion: 3
        time: 0.033333335
        value: {x: -0.26697204, y: -0.000215078, z: 0.0005338835}
        inSlope: {x: -0.055863757, y: -0.012072118, z: 0.029966287}
        outSlope: {x: -0.055863038, y: -0.01207211, z: 0.029966287}
        tangentMode: 0
        weightedMode: 0
        inWeight: {x: 0.33333334, y: 0.33333334, z: 0.33333334}
        outWeight: {x: 0.33333334, y: 0.33333334, z: 0.33333334}
      - serializedVersion: 3
        time: 0.06666667
        value: {x: -0.2697009, y: -0.00080480805, z: 0.001997754}
        inSlope: {x: -0.102088995, y: -0.022062823, z: 0.054765962}
        outSlope: {x: -0.10209169, y: -0.022062834, z: 0.054765977}
        tangentMode: 0
        weightedMode: 0
        inWeight: {x: 0.33333334, y: 0.33333334, z: 0.33333334}
        outWeight: {x: 0.33333334, y: 0.33333334, z: 0.33333334}
      - serializedVersion: 3
        time: 0.26666668
        value: {x: -0.3009066, y: -0.007548544, z: 0.018737542}
        inSlope: {x: -0.13676755, y: -0.029555675, z: 0.07336522}
        outSlope: {x: -0.13676728, y: -0.02955574, z: 0.073365554}
        tangentMode: 0
        weightedMode: 0
        inWeight: {x: 0.33333334, y: 0.33333334, z: 0.33333334}
        outWeight: {x: 0.33333334, y: 0.33333334, z: 0.33333334}
      - serializedVersion: 3
        time: 0.33333334
        value: {x: -0.30771276, y: -0.0090194, z: 0.022388605}
        inSlope: {x: -0.055864513, y: -0.012072121, z: 0.029966084}
        outSlope: {x: -0.055858202, y: -0.012072142, z: 0.029966304}
        tangentMode: 0
        weightedMode: 0
        inWeight: {x: 0.33333334, y: 0.33333334, z: 0.33333334}
        outWeight: {x: 0.33333334, y: 0.33333334, z: 0.33333334}
      - serializedVersion: 3
        time: 0.36666667
        value: {x: -0.30870804, y: -0.009234479, z: 0.022922486}
        inSlope: {x: 0.051735338, y: 0.011179631, z: -0.027750747}
        outSlope: {x: 0.051731806, y: 0.011179495, z: -0.02775001}
        tangentMode: 0
        weightedMode: 0
        inWeight: {x: 0.33333334, y: 0.33333334, z: 0.33333334}
        outWeight: {x: 0.33333334, y: 0.33333334, z: 0.33333334}
      - serializedVersion: 3
        time: 0.4
        value: {x: -0.30426398, y: -0.008274092, z: 0.02053855}
        inSlope: {x: 0.22562206, y: 0.04875801, z: -0.12102992}
        outSlope: {x: 0.22561674, y: 0.048757926, z: -0.12103021}
        tangentMode: 0
        weightedMode: 0
        inWeight: {x: 0.33333334, y: 0.33333334, z: 0.33333334}
        outWeight: {x: 0.33333334, y: 0.33333334, z: 0.33333334}
      - serializedVersion: 3
        time: 0.43333334
        value: {x: -0.29366663, y: -0.0059839427, z: 0.0148537755}
        inSlope: {x: 0.34868434, y: 0.075353175, z: -0.18704696}
        outSlope: {x: 0.34868595, y: 0.07535308, z: -0.18704663}
        tangentMode: 0
        weightedMode: 0
        inWeight: {x: 0.33333334, y: 0.33333334, z: 0.33333334}
        outWeight: {x: 0.33333334, y: 0.33333334, z: 0.33333334}
      - serializedVersion: 3
        time: 0.46666667
        value: {x: -0.2810182, y: -0.0032505377, z: 0.00806872}
        inSlope: {x: 0.34868595, y: 0.07535308, z: -0.18704663}
        outSlope: {x: 0.34868434, y: 0.075353, z: -0.18704672}
        tangentMode: 0
        weightedMode: 0
        inWeight: {x: 0.33333334, y: 0.33333334, z: 0.33333334}
        outWeight: {x: 0.33333334, y: 0.33333334, z: 0.33333334}
      - serializedVersion: 3
        time: 0.5
        value: {x: -0.27042082, y: -0.000960387, z: 0.0023839432}
        inSlope: {x: 0.22561674, y: 0.048757806, z: -0.12103023}
        outSlope: {x: 0.22562118, y: 0.048757832, z: -0.1210302}
        tangentMode: 0
        weightedMode: 0
        inWeight: {x: 0.33333334, y: 0.33333334, z: 0.33333334}
        outWeight: {x: 0.33333334, y: 0.33333334, z: 0.33333334}
      - serializedVersion: 3
        time: 0.53333336
        value: {x: -0.2659768, y: 1.9539925e-16, z: 0.000000001408367}
        inSlope: {x: 0.1333192, y: 0.02881134, z: -0.071517594}
        outSlope: {x: 0.1333192, y: 0.02881134, z: -0.071517594}
        tangentMode: 0
        weightedMode: 0
        inWeight: {x: 0.33333334, y: 0.33333334, z: 0.33333334}
        outWeight: {x: 0.33333334, y: 0.33333334, z: 0.33333334}
      m_PreInfinity: 2
      m_PostInfinity: 2
      m_RotationOrder: 4
    path: Body/Spine01/Spine02/Head
  - curve:
      serializedVersion: 2
      m_Curve:
      - serializedVersion: 3
        time: 0
        value: {x: -0.14992227, y: 0.37512904, z: 3.9375008e-17}
        inSlope: {x: -0.02311627, y: -0.021171348, z: 1.7790309e-17}
        outSlope: {x: -0.02311627, y: -0.021171348, z: 1.7790309e-17}
        tangentMode: 0
        weightedMode: 0
        inWeight: {x: 0.33333334, y: 0.33333334, z: 0.33333334}
        outWeight: {x: 0.33333334, y: 0.33333334, z: 0.33333334}
      - serializedVersion: 3
        time: 0.2
        value: {x: -0.16656706, y: 0.35988522, z: 5.3290704e-17}
        inSlope: {x: -0.098023154, y: -0.08977028, z: 1.3322629e-16}
        outSlope: {x: -0.098019235, y: -0.089772135, z: 1.3322705e-16}
        tangentMode: 0
        weightedMode: 0
        inWeight: {x: 0.33333334, y: 0.33333334, z: 0.33333334}
        outWeight: {x: 0.33333334, y: 0.33333334, z: 0.33333334}
      - serializedVersion: 3
        time: 0.36666667
        value: {x: -0.16793795, y: 0.3586297, z: 5.7731595e-17}
        inSlope: {x: 0.11398587, y: 0.10439229, z: -1.3322619e-16}
        outSlope: {x: 0.113989376, y: 0.104393974, z: -1.332264e-16}
        tangentMode: 0
        weightedMode: 0
        inWeight: {x: 0.33333334, y: 0.33333334, z: 0.33333334}
        outWeight: {x: 0.33333334, y: 0.33333334, z: 0.33333334}
      - serializedVersion: 3
        time: 0.5
        value: {x: -0.15116698, y: 0.37398905, z: 4.0245583e-17}
        inSlope: {x: 0.066820145, y: 0.061199017, z: -3.387499e-17}
        outSlope: {x: 0.066820875, y: 0.061196625, z: -3.3874714e-17}
        tangentMode: 0
        weightedMode: 0
        inWeight: {x: 0.33333334, y: 0.33333334, z: 0.33333334}
        outWeight: {x: 0.33333334, y: 0.33333334, z: 0.33333334}
      - serializedVersion: 3
        time: 0.53333336
        value: {x: -0.14992227, y: 0.37512904, z: 3.9375008e-17}
        inSlope: {x: 0.037341464, y: 0.03419949, z: -2.6117111e-17}
        outSlope: {x: 0.037341464, y: 0.03419949, z: -2.6117111e-17}
        tangentMode: 0
        weightedMode: 0
        inWeight: {x: 0.33333334, y: 0.33333334, z: 0.33333334}
        outWeight: {x: 0.33333334, y: 0.33333334, z: 0.33333334}
      m_PreInfinity: 2
      m_PostInfinity: 2
      m_RotationOrder: 4
    path: Body/Spine01/Shell
  - curve:
      serializedVersion: 2
      m_Curve:
      - serializedVersion: 3
        time: 0
        value: {x: 0.37650892, y: 0.018608263, z: -0.000000002161254}
        inSlope: {x: 0, y: 0, z: 0}
        outSlope: {x: 0, y: 0, z: 0}
        tangentMode: 0
        weightedMode: 0
        inWeight: {x: 0.33333334, y: 0.33333334, z: 0.33333334}
        outWeight: {x: 0.33333334, y: 0.33333334, z: 0.33333334}
      - serializedVersion: 3
        time: 0.53333336
        value: {x: 0.37650892, y: 0.018608263, z: -0.000000002161254}
        inSlope: {x: 0, y: 0, z: 0}
        outSlope: {x: 0, y: 0, z: 0}
        tangentMode: 0
        weightedMode: 0
        inWeight: {x: 0.33333334, y: 0.33333334, z: 0.33333334}
        outWeight: {x: 0.33333334, y: 0.33333334, z: 0.33333334}
      m_PreInfinity: 2
      m_PostInfinity: 2
      m_RotationOrder: 4
    path: Body/Spine01/Shell/HornMid01
  - curve:
      serializedVersion: 2
      m_Curve:
      - serializedVersion: 3
        time: 0
        value: {x: -0.0054182825, y: 0.34079462, z: 0.000000007455179}
        inSlope: {x: 0, y: 0, z: 0}
        outSlope: {x: 0, y: 0, z: 0}
        tangentMode: 0
        weightedMode: 0
        inWeight: {x: 0.33333334, y: 0.33333334, z: 0.33333334}
        outWeight: {x: 0.33333334, y: 0.33333334, z: 0.33333334}
      - serializedVersion: 3
        time: 0.53333336
        value: {x: -0.0054182825, y: 0.34079462, z: 0.000000007455179}
        inSlope: {x: 0, y: 0, z: 0}
        outSlope: {x: 0, y: 0, z: 0}
        tangentMode: 0
        weightedMode: 0
        inWeight: {x: 0.33333334, y: 0.33333334, z: 0.33333334}
        outWeight: {x: 0.33333334, y: 0.33333334, z: 0.33333334}
      m_PreInfinity: 2
      m_PostInfinity: 2
      m_RotationOrder: 4
    path: Body/Spine01/Shell/HornMid02
  - curve:
      serializedVersion: 2
      m_Curve:
      - serializedVersion: 3
        time: 0
        value: {x: -0.37328306, y: 0.17870386, z: 0.000000006434258}
        inSlope: {x: 0, y: 0, z: 0}
        outSlope: {x: 0, y: 0, z: 0}
        tangentMode: 0
        weightedMode: 0
        inWeight: {x: 0.33333334, y: 0.33333334, z: 0.33333334}
        outWeight: {x: 0.33333334, y: 0.33333334, z: 0.33333334}
      - serializedVersion: 3
        time: 0.53333336
        value: {x: -0.37328306, y: 0.17870386, z: 0.000000006434258}
        inSlope: {x: 0, y: 0, z: 0}
        outSlope: {x: 0, y: 0, z: 0}
        tangentMode: 0
        weightedMode: 0
        inWeight: {x: 0.33333334, y: 0.33333334, z: 0.33333334}
        outWeight: {x: 0.33333334, y: 0.33333334, z: 0.33333334}
      m_PreInfinity: 2
      m_PostInfinity: 2
      m_RotationOrder: 4
    path: Body/Spine01/Shell/HornMid03
  - curve:
      serializedVersion: 2
      m_Curve:
      - serializedVersion: 3
        time: 0
        value: {x: -0.017729156, y: 0.2209885, z: -0.21630123}
        inSlope: {x: 0, y: 0, z: 0}
        outSlope: {x: 0, y: 0, z: 0}
        tangentMode: 0
        weightedMode: 0
        inWeight: {x: 0.33333334, y: 0.33333334, z: 0.33333334}
        outWeight: {x: 0.33333334, y: 0.33333334, z: 0.33333334}
      - serializedVersion: 3
        time: 0.53333336
        value: {x: -0.017729156, y: 0.2209885, z: -0.21630123}
        inSlope: {x: 0, y: 0, z: 0}
        outSlope: {x: 0, y: 0, z: 0}
        tangentMode: 0
        weightedMode: 0
        inWeight: {x: 0.33333334, y: 0.33333334, z: 0.33333334}
        outWeight: {x: 0.33333334, y: 0.33333334, z: 0.33333334}
      m_PreInfinity: 2
      m_PostInfinity: 2
      m_RotationOrder: 4
    path: Body/Spine01/Shell/HornL01
  - curve:
      serializedVersion: 2
      m_Curve:
      - serializedVersion: 3
        time: 0
        value: {x: 0.25218183, y: 0.06419484, z: -0.3177189}
        inSlope: {x: 0, y: 0, z: 0}
        outSlope: {x: 0, y: 0, z: 0}
        tangentMode: 0
        weightedMode: 0
        inWeight: {x: 0.33333334, y: 0.33333334, z: 0.33333334}
        outWeight: {x: 0.33333334, y: 0.33333334, z: 0.33333334}
      - serializedVersion: 3
        time: 0.53333336
        value: {x: 0.25218183, y: 0.06419484, z: -0.3177189}
        inSlope: {x: 0, y: 0, z: 0}
        outSlope: {x: 0, y: 0, z: 0}
        tangentMode: 0
        weightedMode: 0
        inWeight: {x: 0.33333334, y: 0.33333334, z: 0.33333334}
        outWeight: {x: 0.33333334, y: 0.33333334, z: 0.33333334}
      m_PreInfinity: 2
      m_PostInfinity: 2
      m_RotationOrder: 4
    path: Body/Spine01/Shell/HornL03
  - curve:
      serializedVersion: 2
      m_Curve:
      - serializedVersion: 3
        time: 0
        value: {x: -0.24946098, y: 0.05954975, z: -0.3244844}
        inSlope: {x: 0, y: 0, z: 0}
        outSlope: {x: 0, y: 0, z: 0}
        tangentMode: 0
        weightedMode: 0
        inWeight: {x: 0.33333334, y: 0.33333334, z: 0.33333334}
        outWeight: {x: 0.33333334, y: 0.33333334, z: 0.33333334}
      - serializedVersion: 3
        time: 0.53333336
        value: {x: -0.24946098, y: 0.05954975, z: -0.3244844}
        inSlope: {x: 0, y: 0, z: 0}
        outSlope: {x: 0, y: 0, z: 0}
        tangentMode: 0
        weightedMode: 0
        inWeight: {x: 0.33333334, y: 0.33333334, z: 0.33333334}
        outWeight: {x: 0.33333334, y: 0.33333334, z: 0.33333334}
      m_PreInfinity: 2
      m_PostInfinity: 2
      m_RotationOrder: 4
    path: Body/Spine01/Shell/HornL02
  - curve:
      serializedVersion: 2
      m_Curve:
      - serializedVersion: 3
        time: 0
        value: {x: -0.03628026, y: -0.1045924, z: -0.42496833}
        inSlope: {x: 0, y: 0, z: 0}
        outSlope: {x: 0, y: 0, z: 0}
        tangentMode: 0
        weightedMode: 0
        inWeight: {x: 0.33333334, y: 0.33333334, z: 0.33333334}
        outWeight: {x: 0.33333334, y: 0.33333334, z: 0.33333334}
      - serializedVersion: 3
        time: 0.53333336
        value: {x: -0.03628026, y: -0.1045924, z: -0.42496833}
        inSlope: {x: 0, y: 0, z: 0}
        outSlope: {x: 0, y: 0, z: 0}
        tangentMode: 0
        weightedMode: 0
        inWeight: {x: 0.33333334, y: 0.33333334, z: 0.33333334}
        outWeight: {x: 0.33333334, y: 0.33333334, z: 0.33333334}
      m_PreInfinity: 2
      m_PostInfinity: 2
      m_RotationOrder: 4
    path: Body/Spine01/Shell/HornL04
  - curve:
      serializedVersion: 2
      m_Curve:
      - serializedVersion: 3
        time: 0
        value: {x: -0.01772882, y: 0.22098848, z: 0.216301}
        inSlope: {x: 0, y: 0, z: 0}
        outSlope: {x: 0, y: 0, z: 0}
        tangentMode: 0
        weightedMode: 0
        inWeight: {x: 0.33333334, y: 0.33333334, z: 0.33333334}
        outWeight: {x: 0.33333334, y: 0.33333334, z: 0.33333334}
      - serializedVersion: 3
        time: 0.53333336
        value: {x: -0.01772882, y: 0.22098848, z: 0.216301}
        inSlope: {x: 0, y: 0, z: 0}
        outSlope: {x: 0, y: 0, z: 0}
        tangentMode: 0
        weightedMode: 0
        inWeight: {x: 0.33333334, y: 0.33333334, z: 0.33333334}
        outWeight: {x: 0.33333334, y: 0.33333334, z: 0.33333334}
      m_PreInfinity: 2
      m_PostInfinity: 2
      m_RotationOrder: 4
    path: Body/Spine01/Shell/HornR01
  - curve:
      serializedVersion: 2
      m_Curve:
      - serializedVersion: 3
        time: 0
        value: {x: -0.2494606, y: 0.059549563, z: 0.324484}
        inSlope: {x: 0, y: 0, z: 0}
        outSlope: {x: 0, y: 0, z: 0}
        tangentMode: 0
        weightedMode: 0
        inWeight: {x: 0.33333334, y: 0.33333334, z: 0.33333334}
        outWeight: {x: 0.33333334, y: 0.33333334, z: 0.33333334}
      - serializedVersion: 3
        time: 0.53333336
        value: {x: -0.2494606, y: 0.059549563, z: 0.324484}
        inSlope: {x: 0, y: 0, z: 0}
        outSlope: {x: 0, y: 0, z: 0}
        tangentMode: 0
        weightedMode: 0
        inWeight: {x: 0.33333334, y: 0.33333334, z: 0.33333334}
        outWeight: {x: 0.33333334, y: 0.33333334, z: 0.33333334}
      m_PreInfinity: 2
      m_PostInfinity: 2
      m_RotationOrder: 4
    path: Body/Spine01/Shell/HornR02
  - curve:
      serializedVersion: 2
      m_Curve:
      - serializedVersion: 3
        time: 0
        value: {x: 0.25218153, y: 0.0641951, z: 0.31771898}
        inSlope: {x: 0, y: 0, z: 0}
        outSlope: {x: 0, y: 0, z: 0}
        tangentMode: 0
        weightedMode: 0
        inWeight: {x: 0.33333334, y: 0.33333334, z: 0.33333334}
        outWeight: {x: 0.33333334, y: 0.33333334, z: 0.33333334}
      - serializedVersion: 3
        time: 0.53333336
        value: {x: 0.25218153, y: 0.0641951, z: 0.31771898}
        inSlope: {x: 0, y: 0, z: 0}
        outSlope: {x: 0, y: 0, z: 0}
        tangentMode: 0
        weightedMode: 0
        inWeight: {x: 0.33333334, y: 0.33333334, z: 0.33333334}
        outWeight: {x: 0.33333334, y: 0.33333334, z: 0.33333334}
      m_PreInfinity: 2
      m_PostInfinity: 2
      m_RotationOrder: 4
    path: Body/Spine01/Shell/HornR03
  - curve:
      serializedVersion: 2
      m_Curve:
      - serializedVersion: 3
        time: 0
        value: {x: -0.036280468, y: -0.104592174, z: 0.42496797}
        inSlope: {x: 0, y: 0, z: 0}
        outSlope: {x: 0, y: 0, z: 0}
        tangentMode: 0
        weightedMode: 0
        inWeight: {x: 0.33333334, y: 0.33333334, z: 0.33333334}
        outWeight: {x: 0.33333334, y: 0.33333334, z: 0.33333334}
      - serializedVersion: 3
        time: 0.53333336
        value: {x: -0.036280468, y: -0.104592174, z: 0.42496797}
        inSlope: {x: 0, y: 0, z: 0}
        outSlope: {x: 0, y: 0, z: 0}
        tangentMode: 0
        weightedMode: 0
        inWeight: {x: 0.33333334, y: 0.33333334, z: 0.33333334}
        outWeight: {x: 0.33333334, y: 0.33333334, z: 0.33333334}
      m_PreInfinity: 2
      m_PostInfinity: 2
      m_RotationOrder: 4
    path: Body/Spine01/Shell/HornR04
  m_ScaleCurves:
  - curve:
      serializedVersion: 2
      m_Curve:
      - serializedVersion: 3
        time: 0
        value: {x: 1, y: 1, z: 1}
        inSlope: {x: 0, y: 0, z: 0}
        outSlope: {x: 0, y: 0, z: 0}
        tangentMode: 0
        weightedMode: 0
        inWeight: {x: 0.33333334, y: 0.33333334, z: 0.33333334}
        outWeight: {x: 0.33333334, y: 0.33333334, z: 0.33333334}
      - serializedVersion: 3
        time: 0.53333336
        value: {x: 1, y: 1, z: 1}
        inSlope: {x: 0, y: 0, z: 0}
        outSlope: {x: 0, y: 0, z: 0}
        tangentMode: 0
        weightedMode: 0
        inWeight: {x: 0.33333334, y: 0.33333334, z: 0.33333334}
        outWeight: {x: 0.33333334, y: 0.33333334, z: 0.33333334}
      m_PreInfinity: 2
      m_PostInfinity: 2
      m_RotationOrder: 4
    path: Body
  - curve:
      serializedVersion: 2
      m_Curve:
      - serializedVersion: 3
        time: 0
        value: {x: 1, y: 1, z: 1}
        inSlope: {x: 0, y: 0, z: 0}
        outSlope: {x: 0, y: 0, z: 0}
        tangentMode: 0
        weightedMode: 0
        inWeight: {x: 0.33333334, y: 0.33333334, z: 0.33333334}
        outWeight: {x: 0.33333334, y: 0.33333334, z: 0.33333334}
      - serializedVersion: 3
        time: 0.53333336
        value: {x: 1, y: 1, z: 1}
        inSlope: {x: 0, y: 0, z: 0}
        outSlope: {x: 0, y: 0, z: 0}
        tangentMode: 0
        weightedMode: 0
        inWeight: {x: 0.33333334, y: 0.33333334, z: 0.33333334}
        outWeight: {x: 0.33333334, y: 0.33333334, z: 0.33333334}
      m_PreInfinity: 2
      m_PostInfinity: 2
      m_RotationOrder: 4
    path: Body/Spine01
  - curve:
      serializedVersion: 2
      m_Curve:
      - serializedVersion: 3
        time: 0
        value: {x: 1, y: 1, z: 1}
        inSlope: {x: 0, y: 0, z: 0}
        outSlope: {x: 0, y: 0, z: 0}
        tangentMode: 0
        weightedMode: 0
        inWeight: {x: 0.33333334, y: 0.33333334, z: 0.33333334}
        outWeight: {x: 0.33333334, y: 0.33333334, z: 0.33333334}
      - serializedVersion: 3
        time: 0.53333336
        value: {x: 1, y: 1, z: 1}
        inSlope: {x: 0, y: 0, z: 0}
        outSlope: {x: 0, y: 0, z: 0}
        tangentMode: 0
        weightedMode: 0
        inWeight: {x: 0.33333334, y: 0.33333334, z: 0.33333334}
        outWeight: {x: 0.33333334, y: 0.33333334, z: 0.33333334}
      m_PreInfinity: 2
      m_PostInfinity: 2
      m_RotationOrder: 4
    path: Body/Spine01/Spine02
  - curve:
      serializedVersion: 2
      m_Curve:
      - serializedVersion: 3
        time: 0
        value: {x: 1, y: 1, z: 1}
        inSlope: {x: 0, y: 0, z: 0}
        outSlope: {x: 0, y: 0, z: 0}
        tangentMode: 0
        weightedMode: 0
        inWeight: {x: 0.33333334, y: 0.33333334, z: 0.33333334}
        outWeight: {x: 0.33333334, y: 0.33333334, z: 0.33333334}
      - serializedVersion: 3
        time: 0.53333336
        value: {x: 1, y: 1, z: 1}
        inSlope: {x: 0, y: 0, z: 0}
        outSlope: {x: 0, y: 0, z: 0}
        tangentMode: 0
        weightedMode: 0
        inWeight: {x: 0.33333334, y: 0.33333334, z: 0.33333334}
        outWeight: {x: 0.33333334, y: 0.33333334, z: 0.33333334}
      m_PreInfinity: 2
      m_PostInfinity: 2
      m_RotationOrder: 4
    path: Body/Spine01/Spine02/Head
  - curve:
      serializedVersion: 2
      m_Curve:
      - serializedVersion: 3
        time: 0
        value: {x: 1, y: 1, z: 1}
        inSlope: {x: 0, y: 0, z: 0}
        outSlope: {x: 0, y: 0, z: 0}
        tangentMode: 0
        weightedMode: 0
        inWeight: {x: 0.33333334, y: 0.33333334, z: 0.33333334}
        outWeight: {x: 0.33333334, y: 0.33333334, z: 0.33333334}
      - serializedVersion: 3
        time: 0.53333336
        value: {x: 1, y: 1, z: 1}
        inSlope: {x: 0, y: 0, z: 0}
        outSlope: {x: 0, y: 0, z: 0}
        tangentMode: 0
        weightedMode: 0
        inWeight: {x: 0.33333334, y: 0.33333334, z: 0.33333334}
        outWeight: {x: 0.33333334, y: 0.33333334, z: 0.33333334}
      m_PreInfinity: 2
      m_PostInfinity: 2
      m_RotationOrder: 4
    path: Body/Spine01/Spine02/Head/Eyeball
  - curve:
      serializedVersion: 2
      m_Curve:
      - serializedVersion: 3
        time: 0
        value: {x: 1, y: 1, z: 1}
        inSlope: {x: 0, y: 0, z: 0}
        outSlope: {x: 0, y: 0, z: 0}
        tangentMode: 0
        weightedMode: 0
        inWeight: {x: 0.33333334, y: 0.33333334, z: 0.33333334}
        outWeight: {x: 0.33333334, y: 0.33333334, z: 0.33333334}
      - serializedVersion: 3
        time: 0.53333336
        value: {x: 1, y: 1, z: 1}
        inSlope: {x: 0, y: 0, z: 0}
        outSlope: {x: 0, y: 0, z: 0}
        tangentMode: 0
        weightedMode: 0
        inWeight: {x: 0.33333334, y: 0.33333334, z: 0.33333334}
        outWeight: {x: 0.33333334, y: 0.33333334, z: 0.33333334}
      m_PreInfinity: 2
      m_PostInfinity: 2
      m_RotationOrder: 4
    path: Body/Spine01/Spine02/Head/UpperCover
  - curve:
      serializedVersion: 2
      m_Curve:
      - serializedVersion: 3
        time: 0
        value: {x: 1, y: 1, z: 1}
        inSlope: {x: 0, y: 0, z: 0}
        outSlope: {x: 0, y: 0, z: 0}
        tangentMode: 0
        weightedMode: 0
        inWeight: {x: 0.33333334, y: 0.33333334, z: 0.33333334}
        outWeight: {x: 0.33333334, y: 0.33333334, z: 0.33333334}
      - serializedVersion: 3
        time: 0.53333336
        value: {x: 1, y: 1, z: 1}
        inSlope: {x: 0, y: 0, z: 0}
        outSlope: {x: 0, y: 0, z: 0}
        tangentMode: 0
        weightedMode: 0
        inWeight: {x: 0.33333334, y: 0.33333334, z: 0.33333334}
        outWeight: {x: 0.33333334, y: 0.33333334, z: 0.33333334}
      m_PreInfinity: 2
      m_PostInfinity: 2
      m_RotationOrder: 4
    path: Body/Spine01/Spine02/Head/BottomCover
  - curve:
      serializedVersion: 2
      m_Curve:
      - serializedVersion: 3
        time: 0
        value: {x: 1, y: 1, z: 1}
        inSlope: {x: 0, y: 0, z: 0}
        outSlope: {x: 0, y: 0, z: 0}
        tangentMode: 0
        weightedMode: 0
        inWeight: {x: 0.33333334, y: 0.33333334, z: 0.33333334}
        outWeight: {x: 0.33333334, y: 0.33333334, z: 0.33333334}
      - serializedVersion: 3
        time: 0.53333336
        value: {x: 1, y: 1, z: 1}
        inSlope: {x: 0, y: 0, z: 0}
        outSlope: {x: 0, y: 0, z: 0}
        tangentMode: 0
        weightedMode: 0
        inWeight: {x: 0.33333334, y: 0.33333334, z: 0.33333334}
        outWeight: {x: 0.33333334, y: 0.33333334, z: 0.33333334}
      m_PreInfinity: 2
      m_PostInfinity: 2
      m_RotationOrder: 4
    path: Body/Spine01/Shell
  - curve:
      serializedVersion: 2
      m_Curve:
      - serializedVersion: 3
        time: 0
        value: {x: 1, y: 1, z: 1}
        inSlope: {x: 0, y: 0, z: 0}
        outSlope: {x: 0, y: 0, z: 0}
        tangentMode: 0
        weightedMode: 0
        inWeight: {x: 0.33333334, y: 0.33333334, z: 0.33333334}
        outWeight: {x: 0.33333334, y: 0.33333334, z: 0.33333334}
      - serializedVersion: 3
        time: 0.53333336
        value: {x: 1, y: 1, z: 1}
        inSlope: {x: 0, y: 0, z: 0}
        outSlope: {x: 0, y: 0, z: 0}
        tangentMode: 0
        weightedMode: 0
        inWeight: {x: 0.33333334, y: 0.33333334, z: 0.33333334}
        outWeight: {x: 0.33333334, y: 0.33333334, z: 0.33333334}
      m_PreInfinity: 2
      m_PostInfinity: 2
      m_RotationOrder: 4
    path: Body/Spine01/Shell/HornMid01
  - curve:
      serializedVersion: 2
      m_Curve:
      - serializedVersion: 3
        time: 0
        value: {x: 1, y: 1, z: 1}
        inSlope: {x: 0, y: 0, z: 0}
        outSlope: {x: 0, y: 0, z: 0}
        tangentMode: 0
        weightedMode: 0
        inWeight: {x: 0.33333334, y: 0.33333334, z: 0.33333334}
        outWeight: {x: 0.33333334, y: 0.33333334, z: 0.33333334}
      - serializedVersion: 3
        time: 0.53333336
        value: {x: 1, y: 1, z: 1}
        inSlope: {x: 0, y: 0, z: 0}
        outSlope: {x: 0, y: 0, z: 0}
        tangentMode: 0
        weightedMode: 0
        inWeight: {x: 0.33333334, y: 0.33333334, z: 0.33333334}
        outWeight: {x: 0.33333334, y: 0.33333334, z: 0.33333334}
      m_PreInfinity: 2
      m_PostInfinity: 2
      m_RotationOrder: 4
    path: Body/Spine01/Shell/HornMid02
  - curve:
      serializedVersion: 2
      m_Curve:
      - serializedVersion: 3
        time: 0
        value: {x: 1, y: 1, z: 1}
        inSlope: {x: 0, y: 0, z: 0}
        outSlope: {x: 0, y: 0, z: 0}
        tangentMode: 0
        weightedMode: 0
        inWeight: {x: 0.33333334, y: 0.33333334, z: 0.33333334}
        outWeight: {x: 0.33333334, y: 0.33333334, z: 0.33333334}
      - serializedVersion: 3
        time: 0.53333336
        value: {x: 1, y: 1, z: 1}
        inSlope: {x: 0, y: 0, z: 0}
        outSlope: {x: 0, y: 0, z: 0}
        tangentMode: 0
        weightedMode: 0
        inWeight: {x: 0.33333334, y: 0.33333334, z: 0.33333334}
        outWeight: {x: 0.33333334, y: 0.33333334, z: 0.33333334}
      m_PreInfinity: 2
      m_PostInfinity: 2
      m_RotationOrder: 4
    path: Body/Spine01/Shell/HornMid03
  - curve:
      serializedVersion: 2
      m_Curve:
      - serializedVersion: 3
        time: 0
        value: {x: 1, y: 1, z: 1}
        inSlope: {x: 0, y: 0, z: 0}
        outSlope: {x: 0, y: 0, z: 0}
        tangentMode: 0
        weightedMode: 0
        inWeight: {x: 0.33333334, y: 0.33333334, z: 0.33333334}
        outWeight: {x: 0.33333334, y: 0.33333334, z: 0.33333334}
      - serializedVersion: 3
        time: 0.53333336
        value: {x: 1, y: 1, z: 1}
        inSlope: {x: 0, y: 0, z: 0}
        outSlope: {x: 0, y: 0, z: 0}
        tangentMode: 0
        weightedMode: 0
        inWeight: {x: 0.33333334, y: 0.33333334, z: 0.33333334}
        outWeight: {x: 0.33333334, y: 0.33333334, z: 0.33333334}
      m_PreInfinity: 2
      m_PostInfinity: 2
      m_RotationOrder: 4
    path: Body/Spine01/Shell/HornL01
  - curve:
      serializedVersion: 2
      m_Curve:
      - serializedVersion: 3
        time: 0
        value: {x: 1, y: 1, z: 1}
        inSlope: {x: 0, y: 0, z: 0}
        outSlope: {x: 0, y: 0, z: 0}
        tangentMode: 0
        weightedMode: 0
        inWeight: {x: 0.33333334, y: 0.33333334, z: 0.33333334}
        outWeight: {x: 0.33333334, y: 0.33333334, z: 0.33333334}
      - serializedVersion: 3
        time: 0.53333336
        value: {x: 1, y: 1, z: 1}
        inSlope: {x: 0, y: 0, z: 0}
        outSlope: {x: 0, y: 0, z: 0}
        tangentMode: 0
        weightedMode: 0
        inWeight: {x: 0.33333334, y: 0.33333334, z: 0.33333334}
        outWeight: {x: 0.33333334, y: 0.33333334, z: 0.33333334}
      m_PreInfinity: 2
      m_PostInfinity: 2
      m_RotationOrder: 4
    path: Body/Spine01/Shell/HornL03
  - curve:
      serializedVersion: 2
      m_Curve:
      - serializedVersion: 3
        time: 0
        value: {x: 1, y: 1, z: 1}
        inSlope: {x: 0, y: 0, z: 0}
        outSlope: {x: 0, y: 0, z: 0}
        tangentMode: 0
        weightedMode: 0
        inWeight: {x: 0.33333334, y: 0.33333334, z: 0.33333334}
        outWeight: {x: 0.33333334, y: 0.33333334, z: 0.33333334}
      - serializedVersion: 3
        time: 0.53333336
        value: {x: 1, y: 1, z: 1}
        inSlope: {x: 0, y: 0, z: 0}
        outSlope: {x: 0, y: 0, z: 0}
        tangentMode: 0
        weightedMode: 0
        inWeight: {x: 0.33333334, y: 0.33333334, z: 0.33333334}
        outWeight: {x: 0.33333334, y: 0.33333334, z: 0.33333334}
      m_PreInfinity: 2
      m_PostInfinity: 2
      m_RotationOrder: 4
    path: Body/Spine01/Shell/HornL02
  - curve:
      serializedVersion: 2
      m_Curve:
      - serializedVersion: 3
        time: 0
        value: {x: 1, y: 1, z: 1}
        inSlope: {x: 0, y: 0, z: 0}
        outSlope: {x: 0, y: 0, z: 0}
        tangentMode: 0
        weightedMode: 0
        inWeight: {x: 0.33333334, y: 0.33333334, z: 0.33333334}
        outWeight: {x: 0.33333334, y: 0.33333334, z: 0.33333334}
      - serializedVersion: 3
        time: 0.53333336
        value: {x: 1, y: 1, z: 1}
        inSlope: {x: 0, y: 0, z: 0}
        outSlope: {x: 0, y: 0, z: 0}
        tangentMode: 0
        weightedMode: 0
        inWeight: {x: 0.33333334, y: 0.33333334, z: 0.33333334}
        outWeight: {x: 0.33333334, y: 0.33333334, z: 0.33333334}
      m_PreInfinity: 2
      m_PostInfinity: 2
      m_RotationOrder: 4
    path: Body/Spine01/Shell/HornL04
  - curve:
      serializedVersion: 2
      m_Curve:
      - serializedVersion: 3
        time: 0
        value: {x: 1, y: 1, z: 1}
        inSlope: {x: 0, y: 0, z: 0}
        outSlope: {x: 0, y: 0, z: 0}
        tangentMode: 0
        weightedMode: 0
        inWeight: {x: 0.33333334, y: 0.33333334, z: 0.33333334}
        outWeight: {x: 0.33333334, y: 0.33333334, z: 0.33333334}
      - serializedVersion: 3
        time: 0.53333336
        value: {x: 1, y: 1, z: 1}
        inSlope: {x: 0, y: 0, z: 0}
        outSlope: {x: 0, y: 0, z: 0}
        tangentMode: 0
        weightedMode: 0
        inWeight: {x: 0.33333334, y: 0.33333334, z: 0.33333334}
        outWeight: {x: 0.33333334, y: 0.33333334, z: 0.33333334}
      m_PreInfinity: 2
      m_PostInfinity: 2
      m_RotationOrder: 4
    path: Body/Spine01/Shell/HornR01
  - curve:
      serializedVersion: 2
      m_Curve:
      - serializedVersion: 3
        time: 0
        value: {x: 1, y: 1, z: 1}
        inSlope: {x: 0, y: 0, z: 0}
        outSlope: {x: 0, y: 0, z: 0}
        tangentMode: 0
        weightedMode: 0
        inWeight: {x: 0.33333334, y: 0.33333334, z: 0.33333334}
        outWeight: {x: 0.33333334, y: 0.33333334, z: 0.33333334}
      - serializedVersion: 3
        time: 0.53333336
        value: {x: 1, y: 1, z: 1}
        inSlope: {x: 0, y: 0, z: 0}
        outSlope: {x: 0, y: 0, z: 0}
        tangentMode: 0
        weightedMode: 0
        inWeight: {x: 0.33333334, y: 0.33333334, z: 0.33333334}
        outWeight: {x: 0.33333334, y: 0.33333334, z: 0.33333334}
      m_PreInfinity: 2
      m_PostInfinity: 2
      m_RotationOrder: 4
    path: Body/Spine01/Shell/HornR02
  - curve:
      serializedVersion: 2
      m_Curve:
      - serializedVersion: 3
        time: 0
        value: {x: 1, y: 1, z: 1}
        inSlope: {x: 0, y: 0, z: 0}
        outSlope: {x: 0, y: 0, z: 0}
        tangentMode: 0
        weightedMode: 0
        inWeight: {x: 0.33333334, y: 0.33333334, z: 0.33333334}
        outWeight: {x: 0.33333334, y: 0.33333334, z: 0.33333334}
      - serializedVersion: 3
        time: 0.53333336
        value: {x: 1, y: 1, z: 1}
        inSlope: {x: 0, y: 0, z: 0}
        outSlope: {x: 0, y: 0, z: 0}
        tangentMode: 0
        weightedMode: 0
        inWeight: {x: 0.33333334, y: 0.33333334, z: 0.33333334}
        outWeight: {x: 0.33333334, y: 0.33333334, z: 0.33333334}
      m_PreInfinity: 2
      m_PostInfinity: 2
      m_RotationOrder: 4
    path: Body/Spine01/Shell/HornR03
  - curve:
      serializedVersion: 2
      m_Curve:
      - serializedVersion: 3
        time: 0
        value: {x: 1, y: 1, z: 1}
        inSlope: {x: 0, y: 0, z: 0}
        outSlope: {x: 0, y: 0, z: 0}
        tangentMode: 0
        weightedMode: 0
        inWeight: {x: 0.33333334, y: 0.33333334, z: 0.33333334}
        outWeight: {x: 0.33333334, y: 0.33333334, z: 0.33333334}
      - serializedVersion: 3
        time: 0.53333336
        value: {x: 1, y: 1, z: 1}
        inSlope: {x: 0, y: 0, z: 0}
        outSlope: {x: 0, y: 0, z: 0}
        tangentMode: 0
        weightedMode: 0
        inWeight: {x: 0.33333334, y: 0.33333334, z: 0.33333334}
        outWeight: {x: 0.33333334, y: 0.33333334, z: 0.33333334}
      m_PreInfinity: 2
      m_PostInfinity: 2
      m_RotationOrder: 4
    path: Body/Spine01/Shell/HornR04
  m_FloatCurves: []
  m_PPtrCurves: []
  m_SampleRate: 30
  m_WrapMode: 0
  m_Bounds:
    m_Center: {x: 0, y: 0, z: 0}
    m_Extent: {x: 0, y: 0, z: 0}
  m_ClipBindingConstant:
    genericBindings: []
    pptrCurveMapping: []
  m_AnimationClipSettings:
    serializedVersion: 2
    m_AdditiveReferencePoseClip: {fileID: 0}
    m_AdditiveReferencePoseTime: 0
    m_StartTime: 0
    m_StopTime: 0.53333336
    m_OrientationOffsetY: 0
    m_Level: 0
    m_CycleOffset: 0
    m_HasAdditiveReferencePose: 0
    m_LoopTime: 1
    m_LoopBlend: 0
    m_LoopBlendOrientation: 0
    m_LoopBlendPositionY: 0
    m_LoopBlendPositionXZ: 0
    m_KeepOriginalOrientation: 0
    m_KeepOriginalPositionY: 1
    m_KeepOriginalPositionXZ: 0
    m_HeightFromFeet: 0
    m_Mirror: 0
  m_EditorCurves: []
  m_EulerEditorCurves: []
  m_HasGenericRootTransform: 0
  m_HasMotionFloatCurves: 0
  m_Events: []
